{
  "project_info": {
    "project_number": "980978369044",
    "firebase_url": "https://irgl2018.firebaseio.com",
    "project_id": "irgl2018",
    "storage_bucket": "irgl2018.appspot.com"
  },
  "client": [
    {
      "client_info": {
        "mobilesdk_app_id": "1:980978369044:android:0983cbee8f31954e",
        "android_client_info": {
          "package_name": "com.coc.irgl"
        }
      },
      "oauth_client": [
        {
          "client_id": "980978369044-90sgnj473u4mhlch9nbi21edh0sfsh8u.apps.googleusercontent.com",
          "client_type": 3
        }
      ],
      "api_key": [
        {
          "current_key": "AIzaSyCBLlglqzqHDaOexpCh960gook87NCa2eQ"
        }
      ],
      "services": {
        "analytics_service": {
          "status": 1
        },
        "appinvite_service": {
          "status": 1,
          "other_platform_oauth_client": []
        },
        "ads_service": {
          "status": 2
        }
      }
    }
  ],
  "configuration_version": "1"
}