%YAML 1.1
%TAG !u! tag:unity3d.com,2011:
--- !u!1045 &1
EditorBuildSettings:
  m_ObjectHideFlags: 0
  serializedVersion: 2
  m_Scenes:
  - enabled: 1
    path: Assets/Scenes/MainMenu.unity
    guid: 23877b1e313a24e47bb2391f9b115dd0
  - enabled: 1
    path: Assets/Scenes/BuildScene.unity
    guid: 87f664470fc632d44b23997ad57f920b
  - enabled: 1
    path: Assets/Scenes/AttackScene.unity
    guid: 3e82e930e5964414c8116391cd901fe8
  m_configObjects: {}
