%YAML 1.1
%TAG !u! tag:unity3d.com,2011:
--- !u!29 &1
OcclusionCullingSettings:
  m_ObjectHideFlags: 0
  serializedVersion: 2
  m_OcclusionBakeSettings:
    smallestOccluder: 5
    smallestHole: 0.25
    backfaceThreshold: 100
  m_SceneGUID: 00000000000000000000000000000000
  m_OcclusionCullingData: {fileID: 0}
--- !u!104 &2
RenderSettings:
  m_ObjectHideFlags: 0
  serializedVersion: 8
  m_Fog: 0
  m_FogColor: {r: 0.5, g: 0.5, b: 0.5, a: 1}
  m_FogMode: 3
  m_FogDensity: 0.01
  m_LinearFogStart: 0
  m_LinearFogEnd: 300
  m_AmbientSkyColor: {r: 0, g: 0, b: 0, a: 1}
  m_AmbientEquatorColor: {r: 0, g: 0, b: 0, a: 1}
  m_AmbientGroundColor: {r: 0, g: 0, b: 0, a: 1}
  m_AmbientIntensity: 1
  m_AmbientMode: 3
  m_SubtractiveShadowColor: {r: 0.42, g: 0.478, b: 0.627, a: 1}
  m_SkyboxMaterial: {fileID: 0}
  m_HaloStrength: 0.5
  m_FlareStrength: 1
  m_FlareFadeSpeed: 3
  m_HaloTexture: {fileID: 0}
  m_SpotCookie: {fileID: 10001, guid: 0000000000000000e000000000000000, type: 0}
  m_DefaultReflectionMode: 0
  m_DefaultReflectionResolution: 128
  m_ReflectionBounces: 1
  m_ReflectionIntensity: 1
  m_CustomReflection: {fileID: 0}
  m_Sun: {fileID: 0}
  m_IndirectSpecularColor: {r: 0, g: 0, b: 0, a: 1}
--- !u!157 &4
LightmapSettings:
  m_ObjectHideFlags: 0
  serializedVersion: 11
  m_GIWorkflowMode: 1
  m_GISettings:
    serializedVersion: 2
    m_BounceScale: 1
    m_IndirectOutputScale: 1
    m_AlbedoBoost: 1
    m_TemporalCoherenceThreshold: 1
    m_EnvironmentLightingMode: 0
    m_EnableBakedLightmaps: 1
    m_EnableRealtimeLightmaps: 0
  m_LightmapEditorSettings:
    serializedVersion: 9
    m_Resolution: 1
    m_BakeResolution: 50
    m_TextureWidth: 1024
    m_TextureHeight: 1024
    m_AO: 0
    m_AOMaxDistance: 1
    m_CompAOExponent: 0
    m_CompAOExponentDirect: 0
    m_Padding: 2
    m_LightmapParameters: {fileID: 0}
    m_LightmapsBakeMode: 1
    m_TextureCompression: 0
    m_FinalGather: 0
    m_FinalGatherFiltering: 1
    m_FinalGatherRayCount: 1024
    m_ReflectionCompression: 2
    m_MixedBakeMode: 1
    m_BakeBackend: 0
    m_PVRSampling: 1
    m_PVRDirectSampleCount: 32
    m_PVRSampleCount: 500
    m_PVRBounces: 2
    m_PVRFiltering: 0
    m_PVRFilteringMode: 1
    m_PVRCulling: 1
    m_PVRFilteringGaussRadiusDirect: 1
    m_PVRFilteringGaussRadiusIndirect: 5
    m_PVRFilteringGaussRadiusAO: 2
    m_PVRFilteringAtrousColorSigma: 1
    m_PVRFilteringAtrousNormalSigma: 1
    m_PVRFilteringAtrousPositionSigma: 1
  m_LightingDataAsset: {fileID: 0}
  m_UseShadowmask: 0
--- !u!196 &5
NavMeshSettings:
  serializedVersion: 2
  m_ObjectHideFlags: 0
  m_BuildSettings:
    serializedVersion: 2
    agentTypeID: 0
    agentRadius: 0.5
    agentHeight: 2
    agentSlope: 45
    agentClimb: 0.4
    ledgeDropHeight: 0
    maxJumpAcrossDistance: 0
    minRegionArea: 2
    manualCellSize: 0
    cellSize: 0.16666666
    manualTileSize: 0
    tileSize: 256
    accuratePlacement: 0
  m_NavMeshData: {fileID: 0}
--- !u!1 &37150741
GameObject:
  m_ObjectHideFlags: 0
  m_PrefabParentObject: {fileID: 159870, guid: 03195f095903a914192b43fe5bb968e1, type: 2}
  m_PrefabInternal: {fileID: 1050795357}
  serializedVersion: 5
  m_Component:
  - component: {fileID: 37150742}
  m_Layer: 0
  m_Name: B_L_Finger3
  m_TagString: Untagged
  m_Icon: {fileID: 0}
  m_NavMeshLayer: 0
  m_StaticEditorFlags: 0
  m_IsActive: 1
--- !u!4 &37150742
Transform:
  m_ObjectHideFlags: 0
  m_PrefabParentObject: {fileID: 459878, guid: 03195f095903a914192b43fe5bb968e1, type: 2}
  m_PrefabInternal: {fileID: 1050795357}
  m_GameObject: {fileID: 37150741}
  m_LocalRotation: {x: -0.00039871738, y: 0.0000002086177, z: -0.0000000036421106,
    w: 0.99999994}
  m_LocalPosition: {x: -0.17157638, y: -0.03492878, z: 0.020928191}
  m_LocalScale: {x: 1.0000001, y: 1, z: 0.9999999}
  m_Children:
  - {fileID: 998309140}
  m_Father: {fileID: 464745159}
  m_RootOrder: 3
  m_LocalEulerAnglesHint: {x: 0, y: 0, z: 0}
--- !u!1 &53217427
GameObject:
  m_ObjectHideFlags: 0
  m_PrefabParentObject: {fileID: 159894, guid: 03195f095903a914192b43fe5bb968e1, type: 2}
  m_PrefabInternal: {fileID: 1050795357}
  serializedVersion: 5
  m_Component:
  - component: {fileID: 53217428}
  m_Layer: 0
  m_Name: B_R_Finger0
  m_TagString: Untagged
  m_Icon: {fileID: 0}
  m_NavMeshLayer: 0
  m_StaticEditorFlags: 0
  m_IsActive: 1
--- !u!4 &53217428
Transform:
  m_ObjectHideFlags: 0
  m_PrefabParentObject: {fileID: 459892, guid: 03195f095903a914192b43fe5bb968e1, type: 2}
  m_PrefabInternal: {fileID: 1050795357}
  m_GameObject: {fileID: 53217427}
  m_LocalRotation: {x: -0.44854176, y: 0.13317707, z: -0.06779058, w: 0.8811802}
  m_LocalPosition: {x: -0.09849678, y: -0.0020534897, z: 0.10302414}
  m_LocalScale: {x: 1.0000002, y: 0.9999996, z: 0.9999996}
  m_Children:
  - {fileID: 620157113}
  m_Father: {fileID: 1343890179}
  m_RootOrder: 0
  m_LocalEulerAnglesHint: {x: 0, y: 0, z: 0}
--- !u!1 &162912524
GameObject:
  m_ObjectHideFlags: 0
  m_PrefabParentObject: {fileID: 159902, guid: 03195f095903a914192b43fe5bb968e1, type: 2}
  m_PrefabInternal: {fileID: 1050795357}
  serializedVersion: 5
  m_Component:
  - component: {fileID: 162912525}
  m_Layer: 0
  m_Name: B_R_Finger11
  m_TagString: Untagged
  m_Icon: {fileID: 0}
  m_NavMeshLayer: 0
  m_StaticEditorFlags: 0
  m_IsActive: 1
--- !u!4 &162912525
Transform:
  m_ObjectHideFlags: 0
  m_PrefabParentObject: {fileID: 459900, guid: 03195f095903a914192b43fe5bb968e1, type: 2}
  m_PrefabInternal: {fileID: 1050795357}
  m_GameObject: {fileID: 162912524}
  m_LocalRotation: {x: 4.3494655e-10, y: 0.00000012372499, z: -0.11640196, w: 0.9932022}
  m_LocalPosition: {x: -0.07370773, y: -0.000000038146972, z: 0.000000076293944}
  m_LocalScale: {x: 1.0000002, y: 0.9999998, z: 1}
  m_Children:
  - {fileID: 1437563058}
  m_Father: {fileID: 1469095611}
  m_RootOrder: 0
  m_LocalEulerAnglesHint: {x: 0, y: 0, z: 0}
--- !u!1 &166314205
GameObject:
  m_ObjectHideFlags: 0
  m_PrefabParentObject: {fileID: 159884, guid: 03195f095903a914192b43fe5bb968e1, type: 2}
  m_PrefabInternal: {fileID: 1050795357}
  serializedVersion: 5
  m_Component:
  - component: {fileID: 166314207}
  - component: {fileID: 166314206}
  m_Layer: 0
  m_Name: B_Head
  m_TagString: Untagged
  m_Icon: {fileID: 0}
  m_NavMeshLayer: 0
  m_StaticEditorFlags: 0
  m_IsActive: 1
--- !u!54 &166314206
Rigidbody:
  m_ObjectHideFlags: 0
  m_PrefabParentObject: {fileID: 5486048, guid: 03195f095903a914192b43fe5bb968e1,
    type: 2}
  m_PrefabInternal: {fileID: 1050795357}
  m_GameObject: {fileID: 166314205}
  serializedVersion: 2
  m_Mass: 0.0000001
  m_Drag: 0
  m_AngularDrag: 0.05
  m_UseGravity: 0
  m_IsKinematic: 1
  m_Interpolate: 0
  m_Constraints: 0
  m_CollisionDetection: 0
--- !u!4 &166314207
Transform:
  m_ObjectHideFlags: 0
  m_PrefabParentObject: {fileID: 459848, guid: 03195f095903a914192b43fe5bb968e1, type: 2}
  m_PrefabInternal: {fileID: 1050795357}
  m_GameObject: {fileID: 166314205}
  m_LocalRotation: {x: 0.0000000297811, y: -0.0000000010923774, z: 0.00039887495,
    w: 0.99999994}
  m_LocalPosition: {x: -0.12820907, y: -0.000000020861625, z: 2.842171e-16}
  m_LocalScale: {x: 1, y: 1, z: 1}
  m_Children: []
  m_Father: {fileID: 1780328372}
  m_RootOrder: 0
  m_LocalEulerAnglesHint: {x: 0, y: 0, z: 0}
--- !u!1 &171066303
GameObject:
  m_ObjectHideFlags: 0
  m_PrefabParentObject: {fileID: 159898, guid: 03195f095903a914192b43fe5bb968e1, type: 2}
  m_PrefabInternal: {fileID: 1050795357}
  serializedVersion: 5
  m_Component:
  - component: {fileID: 171066304}
  m_Layer: 0
  m_Name: B_R_Finger02
  m_TagString: Untagged
  m_Icon: {fileID: 0}
  m_NavMeshLayer: 0
  m_StaticEditorFlags: 0
  m_IsActive: 1
--- !u!4 &171066304
Transform:
  m_ObjectHideFlags: 0
  m_PrefabParentObject: {fileID: 459896, guid: 03195f095903a914192b43fe5bb968e1, type: 2}
  m_PrefabInternal: {fileID: 1050795357}
  m_GameObject: {fileID: 171066303}
  m_LocalRotation: {x: 0.000000033356088, y: -0.00000013143601, z: -0.116402015, w: 0.9932022}
  m_LocalPosition: {x: -0.061423108, y: 0.000000057220458, z: 0.0000002479553}
  m_LocalScale: {x: 1.0000004, y: 1.0000004, z: 1.0000001}
  m_Children: []
  m_Father: {fileID: 620157113}
  m_RootOrder: 0
  m_LocalEulerAnglesHint: {x: 0, y: 0, z: 0}
--- !u!1 &209276484
GameObject:
  m_ObjectHideFlags: 0
  m_PrefabParentObject: {fileID: 189288, guid: 16dc4b51d7b30f74a9fd33417596daa7, type: 2}
  m_PrefabInternal: {fileID: 1782911851}
  serializedVersion: 5
  m_Component:
  - component: {fileID: 209276490}
  - component: {fileID: 209276489}
  - component: {fileID: 209276488}
  - component: {fileID: 209276487}
  - component: {fileID: 209276486}
  - component: {fileID: 209276485}
  m_Layer: 0
  m_Name: Main Camera
  m_TagString: MainCamera
  m_Icon: {fileID: 0}
  m_NavMeshLayer: 0
  m_StaticEditorFlags: 0
  m_IsActive: 1
--- !u!114 &209276485
MonoBehaviour:
  m_ObjectHideFlags: 0
  m_PrefabParentObject: {fileID: 11481238, guid: 16dc4b51d7b30f74a9fd33417596daa7,
    type: 2}
  m_PrefabInternal: {fileID: 1782911851}
  m_GameObject: {fileID: 209276484}
  m_Enabled: 1
  m_EditorHideFlags: 0
  m_Script: {fileID: 11500000, guid: 02c58f72133423b47954dba9aa3ef79e, type: 3}
  m_Name: 
  m_EditorClassIdentifier: 
  LockX: 0
  offSetZ: -6
  LockY: 1
  LockZ: 0
  useSmoothing: 1
  target: {fileID: 683289462}
  hudElements: {fileID: 1393291929}
--- !u!81 &209276486
AudioListener:
  m_ObjectHideFlags: 0
  m_PrefabParentObject: {fileID: 8189288, guid: 16dc4b51d7b30f74a9fd33417596daa7,
    type: 2}
  m_PrefabInternal: {fileID: 1782911851}
  m_GameObject: {fileID: 209276484}
  m_Enabled: 1
--- !u!124 &209276487
Behaviour:
  m_ObjectHideFlags: 0
  m_PrefabParentObject: {fileID: 12489288, guid: 16dc4b51d7b30f74a9fd33417596daa7,
    type: 2}
  m_PrefabInternal: {fileID: 1782911851}
  m_GameObject: {fileID: 209276484}
  m_Enabled: 1
--- !u!92 &209276488
Behaviour:
  m_ObjectHideFlags: 0
  m_PrefabParentObject: {fileID: 9289288, guid: 16dc4b51d7b30f74a9fd33417596daa7,
    type: 2}
  m_PrefabInternal: {fileID: 1782911851}
  m_GameObject: {fileID: 209276484}
  m_Enabled: 1
--- !u!20 &209276489
Camera:
  m_ObjectHideFlags: 0
  m_PrefabParentObject: {fileID: 2089288, guid: 16dc4b51d7b30f74a9fd33417596daa7,
    type: 2}
  m_PrefabInternal: {fileID: 1782911851}
  m_GameObject: {fileID: 209276484}
  m_Enabled: 1
  serializedVersion: 2
  m_ClearFlags: 1
  m_BackGroundColor: {r: 0.22745098, g: 0.22352941, b: 0.22745098, a: 0.019607844}
  m_NormalizedViewPortRect:
    serializedVersion: 2
    x: 0
    y: 0
    width: 1
    height: 1
  near clip plane: 0.3
  far clip plane: 1000
  field of view: 60
  orthographic: 0
  orthographic size: 5
  m_Depth: -1
  m_CullingMask:
    serializedVersion: 2
    m_Bits: 4294967295
  m_RenderingPath: -1
  m_TargetTexture: {fileID: 0}
  m_TargetDisplay: 0
  m_TargetEye: 3
  m_HDR: 1
  m_AllowMSAA: 1
  m_ForceIntoRT: 0
  m_OcclusionCulling: 1
  m_StereoConvergence: 10
  m_StereoSeparation: 0.022
  m_StereoMirrorMode: 0
--- !u!4 &209276490
Transform:
  m_ObjectHideFlags: 0
  m_PrefabParentObject: {fileID: 489288, guid: 16dc4b51d7b30f74a9fd33417596daa7, type: 2}
  m_PrefabInternal: {fileID: 1782911851}
  m_GameObject: {fileID: 209276484}
  m_LocalRotation: {x: -0.3826835, y: 0.000001006114, z: -0.00000039634634, w: -0.92387956}
  m_LocalPosition: {x: 2.62, y: 6.72, z: -8}
  m_LocalScale: {x: 1, y: 1, z: 1}
  m_Children:
  - {fileID: 1253676470}
  m_Father: {fileID: 0}
  m_RootOrder: 1
  m_LocalEulerAnglesHint: {x: 0, y: 0, z: 0}
--- !u!1 &335907380
GameObject:
  m_ObjectHideFlags: 0
  m_PrefabParentObject: {fileID: 159866, guid: 03195f095903a914192b43fe5bb968e1, type: 2}
  m_PrefabInternal: {fileID: 1050795357}
  serializedVersion: 5
  m_Component:
  - component: {fileID: 335907381}
  m_Layer: 0
  m_Name: B_L_Finger21
  m_TagString: Untagged
  m_Icon: {fileID: 0}
  m_NavMeshLayer: 0
  m_StaticEditorFlags: 0
  m_IsActive: 1
--- !u!4 &335907381
Transform:
  m_ObjectHideFlags: 0
  m_PrefabParentObject: {fileID: 459874, guid: 03195f095903a914192b43fe5bb968e1, type: 2}
  m_PrefabInternal: {fileID: 1050795357}
  m_GameObject: {fileID: 335907380}
  m_LocalRotation: {x: 0.00000002740004, y: -0.00000025826478, z: -0.11640215, w: 0.9932022}
  m_LocalPosition: {x: -0.08599235, y: 0, z: 0.000000095367426}
  m_LocalScale: {x: 1.0000002, y: 0.9999999, z: 0.9999995}
  m_Children:
  - {fileID: 2053519572}
  m_Father: {fileID: 684824003}
  m_RootOrder: 0
  m_LocalEulerAnglesHint: {x: 0, y: 0, z: 0}
--- !u!1 &404298545
GameObject:
  m_ObjectHideFlags: 0
  m_PrefabParentObject: {fileID: 186040, guid: 03195f095903a914192b43fe5bb968e1, type: 2}
  m_PrefabInternal: {fileID: 1050795357}
  serializedVersion: 5
  m_Component:
  - component: {fileID: 404298546}
  - component: {fileID: 404298547}
  - component: {fileID: 404298548}
  m_Layer: 0
  m_Name: Hair2
  m_TagString: Untagged
  m_Icon: {fileID: 0}
  m_NavMeshLayer: 0
  m_StaticEditorFlags: 0
  m_IsActive: 1
--- !u!4 &404298546
Transform:
  m_ObjectHideFlags: 0
  m_PrefabParentObject: {fileID: 486040, guid: 03195f095903a914192b43fe5bb968e1, type: 2}
  m_PrefabInternal: {fileID: 1050795357}
  m_GameObject: {fileID: 404298545}
  m_LocalRotation: {x: 0, y: -0, z: -0, w: 1}
  m_LocalPosition: {x: 0.2709149, y: 0.00000034340925, z: 0}
  m_LocalScale: {x: 1, y: 1, z: 1}
  m_Children:
  - {fileID: 1426487488}
  m_Father: {fileID: 2018931442}
  m_RootOrder: 0
  m_LocalEulerAnglesHint: {x: 0, y: 0, z: 0}
--- !u!54 &404298547
Rigidbody:
  m_ObjectHideFlags: 0
  m_PrefabParentObject: {fileID: 5486044, guid: 03195f095903a914192b43fe5bb968e1,
    type: 2}
  m_PrefabInternal: {fileID: 1050795357}
  m_GameObject: {fileID: 404298545}
  serializedVersion: 2
  m_Mass: 12
  m_Drag: 1
  m_AngularDrag: 1
  m_UseGravity: 1
  m_IsKinematic: 0
  m_Interpolate: 0
  m_Constraints: 0
  m_CollisionDetection: 2
--- !u!144 &404298548
CharacterJoint:
  m_ObjectHideFlags: 0
  m_PrefabParentObject: {fileID: 14486046, guid: 03195f095903a914192b43fe5bb968e1,
    type: 2}
  m_PrefabInternal: {fileID: 1050795357}
  m_GameObject: {fileID: 404298545}
  m_ConnectedBody: {fileID: 2018931443}
  m_Anchor: {x: 0, y: 0, z: 0}
  m_Axis: {x: 0, y: 1, z: 0}
  m_AutoConfigureConnectedAnchor: 1
  m_ConnectedAnchor: {x: 0.27091494, y: 0.0000004147744, z: -0.00000023841858}
  serializedVersion: 2
  m_SwingAxis: {x: 0, y: 0, z: 1}
  m_TwistLimitSpring:
    spring: 0
    damper: 0
  m_LowTwistLimit:
    limit: -60
    bounciness: 0
    contactDistance: 0
  m_HighTwistLimit:
    limit: 60
    bounciness: 0
    contactDistance: 0
  m_SwingLimitSpring:
    spring: 0
    damper: 0
  m_Swing1Limit:
    limit: 80
    bounciness: 0
    contactDistance: 0
  m_Swing2Limit:
    limit: 0
    bounciness: 0
    contactDistance: 0
  m_EnableProjection: 0
  m_ProjectionDistance: 0.1
  m_ProjectionAngle: 180
  m_BreakForce: Infinity
  m_BreakTorque: Infinity
  m_EnableCollision: 0
  m_EnablePreprocessing: 1
  m_MassScale: 1
  m_ConnectedMassScale: 1
--- !u!1 &432706325
GameObject:
  m_ObjectHideFlags: 0
  m_PrefabParentObject: {fileID: 189280, guid: 16dc4b51d7b30f74a9fd33417596daa7, type: 2}
  m_PrefabInternal: {fileID: 1782911851}
  serializedVersion: 5
  m_Component:
  - component: {fileID: 432706326}
  - component: {fileID: 432706327}
  m_Layer: 1
  m_Name: Controls3
  m_TagString: Untagged
  m_Icon: {fileID: 0}
  m_NavMeshLayer: 0
  m_StaticEditorFlags: 0
  m_IsActive: 1
--- !u!4 &432706326
Transform:
  m_ObjectHideFlags: 0
  m_PrefabParentObject: {fileID: 489280, guid: 16dc4b51d7b30f74a9fd33417596daa7, type: 2}
  m_PrefabInternal: {fileID: 1782911851}
  m_GameObject: {fileID: 432706325}
  m_LocalRotation: {x: 0.0000002415739, y: 0.00000022335256, z: -0.00000039155222,
    w: 1}
  m_LocalPosition: {x: 0, y: -1.26, z: 0}
  m_LocalScale: {x: 1, y: 1, z: 1}
  m_Children: []
  m_Father: {fileID: 1393291931}
  m_RootOrder: 1
  m_LocalEulerAnglesHint: {x: 0, y: 0, z: 0}
--- !u!212 &432706327
SpriteRenderer:
  m_ObjectHideFlags: 0
  m_PrefabParentObject: {fileID: 21289284, guid: 16dc4b51d7b30f74a9fd33417596daa7,
    type: 2}
  m_PrefabInternal: {fileID: 1782911851}
  m_GameObject: {fileID: 432706325}
  m_Enabled: 1
  m_CastShadows: 0
  m_ReceiveShadows: 0
  m_MotionVectors: 1
  m_LightProbeUsage: 0
  m_ReflectionProbeUsage: 1
  m_Materials:
  - {fileID: 10754, guid: 0000000000000000f000000000000000, type: 0}
  m_StaticBatchInfo:
    firstSubMesh: 0
    subMeshCount: 0
  m_StaticBatchRoot: {fileID: 0}
  m_ProbeAnchor: {fileID: 0}
  m_LightProbeVolumeOverride: {fileID: 0}
  m_ScaleInLightmap: 1
  m_PreserveUVs: 0
  m_IgnoreNormalsForChartDetection: 0
  m_ImportantGI: 0
  m_SelectedEditorRenderState: 0
  m_MinimumChartSize: 4
  m_AutoUVMaxDistance: 0.5
  m_AutoUVMaxAngle: 89
  m_LightmapParameters: {fileID: 0}
  m_SortingLayerID: 0
  m_SortingLayer: 0
  m_SortingOrder: 0
  m_Sprite: {fileID: 21300000, guid: 8e5cb6b13e58cec42abfc161955e73b8, type: 3}
  m_Color: {r: 1, g: 1, b: 1, a: 1}
  m_FlipX: 0
  m_FlipY: 0
  m_DrawMode: 0
  m_Size: {x: 1, y: 1}
  m_AdaptiveModeThreshold: 0.5
  m_SpriteTileMode: 0
  m_WasSpriteAssigned: 1
  m_MaskInteraction: 0
--- !u!1 &464745158
GameObject:
  m_ObjectHideFlags: 0
  m_PrefabParentObject: {fileID: 159850, guid: 03195f095903a914192b43fe5bb968e1, type: 2}
  m_PrefabInternal: {fileID: 1050795357}
  serializedVersion: 5
  m_Component:
  - component: {fileID: 464745159}
  m_Layer: 0
  m_Name: B_L_Hand
  m_TagString: Untagged
  m_Icon: {fileID: 0}
  m_NavMeshLayer: 0
  m_StaticEditorFlags: 0
  m_IsActive: 1
--- !u!4 &464745159
Transform:
  m_ObjectHideFlags: 0
  m_PrefabParentObject: {fileID: 459858, guid: 03195f095903a914192b43fe5bb968e1, type: 2}
  m_PrefabInternal: {fileID: 1050795357}
  m_GameObject: {fileID: 464745158}
  m_LocalRotation: {x: -0.7068252, y: 0.00000004215104, z: 0.00000001051993, w: 0.7073883}
  m_LocalPosition: {x: -0.25447464, y: -0.000000057220458, z: -0.000000114440915}
  m_LocalScale: {x: 1, y: 0.9999999, z: 1.0000005}
  m_Children:
  - {fileID: 1508426080}
  - {fileID: 1851103638}
  - {fileID: 684824003}
  - {fileID: 37150742}
  - {fileID: 598438001}
  m_Father: {fileID: 586424583}
  m_RootOrder: 0
  m_LocalEulerAnglesHint: {x: 0, y: 0, z: 0}
--- !u!1 &465354484
GameObject:
  m_ObjectHideFlags: 0
  m_PrefabParentObject: {fileID: 186046, guid: 03195f095903a914192b43fe5bb968e1, type: 2}
  m_PrefabInternal: {fileID: 1050795357}
  serializedVersion: 5
  m_Component:
  - component: {fileID: 465354485}
  - component: {fileID: 465354486}
  m_Layer: 0
  m_Name: Mesh-Sorceress
  m_TagString: Untagged
  m_Icon: {fileID: 0}
  m_NavMeshLayer: 0
  m_StaticEditorFlags: 0
  m_IsActive: 1
--- !u!4 &465354485
Transform:
  m_ObjectHideFlags: 0
  m_PrefabParentObject: {fileID: 486046, guid: 03195f095903a914192b43fe5bb968e1, type: 2}
  m_PrefabInternal: {fileID: 1050795357}
  m_GameObject: {fileID: 465354484}
  m_LocalRotation: {x: -0.7071068, y: 0, z: -0, w: 0.7071068}
  m_LocalPosition: {x: 0.00000013304955, y: 0, z: 0}
  m_LocalScale: {x: 1, y: 1, z: 1}
  m_Children: []
  m_Father: {fileID: 1612309661}
  m_RootOrder: 0
  m_LocalEulerAnglesHint: {x: 0, y: 0, z: 0}
--- !u!137 &465354486
SkinnedMeshRenderer:
  m_ObjectHideFlags: 0
  m_PrefabParentObject: {fileID: 13786048, guid: 03195f095903a914192b43fe5bb968e1,
    type: 2}
  m_PrefabInternal: {fileID: 1050795357}
  m_GameObject: {fileID: 465354484}
  m_Enabled: 1
  m_CastShadows: 1
  m_ReceiveShadows: 1
  m_MotionVectors: 1
  m_LightProbeUsage: 0
  m_ReflectionProbeUsage: 1
  m_Materials:
  - {fileID: 2100000, guid: 6c7601037374e0d4aaeb4f27e01bccb1, type: 2}
  m_StaticBatchInfo:
    firstSubMesh: 0
    subMeshCount: 0
  m_StaticBatchRoot: {fileID: 0}
  m_ProbeAnchor: {fileID: 0}
  m_LightProbeVolumeOverride: {fileID: 0}
  m_ScaleInLightmap: 1
  m_PreserveUVs: 0
  m_IgnoreNormalsForChartDetection: 0
  m_ImportantGI: 0
  m_SelectedEditorRenderState: 3
  m_MinimumChartSize: 4
  m_AutoUVMaxDistance: 0.5
  m_AutoUVMaxAngle: 89
  m_LightmapParameters: {fileID: 0}
  m_SortingLayerID: 0
  m_SortingLayer: 0
  m_SortingOrder: 0
  serializedVersion: 2
  m_Quality: 0
  m_UpdateWhenOffscreen: 1
  m_SkinnedMotionVectors: 1
  m_Mesh: {fileID: 4300000, guid: 5d81d0e6f22b34943a12a965c6f6ca40, type: 3}
  m_Bones:
  - {fileID: 2018931442}
  - {fileID: 404298546}
  - {fileID: 1271043110}
  - {fileID: 1426487488}
  m_BlendShapeWeights: []
  m_RootBone: {fileID: 1271043110}
  m_AABB:
    m_Center: {x: 0.44227105, y: 0.00033436716, z: -0.0003478974}
    m_Extent: {x: 0.3853644, y: 0.042263076, z: 0.036362305}
  m_DirtyAABB: 0
--- !u!1 &491974277
GameObject:
  m_ObjectHideFlags: 0
  m_PrefabParentObject: {fileID: 159862, guid: 03195f095903a914192b43fe5bb968e1, type: 2}
  m_PrefabInternal: {fileID: 1050795357}
  serializedVersion: 5
  m_Component:
  - component: {fileID: 491974278}
  m_Layer: 0
  m_Name: B_L_Finger12
  m_TagString: Untagged
  m_Icon: {fileID: 0}
  m_NavMeshLayer: 0
  m_StaticEditorFlags: 0
  m_IsActive: 1
--- !u!4 &491974278
Transform:
  m_ObjectHideFlags: 0
  m_PrefabParentObject: {fileID: 459870, guid: 03195f095903a914192b43fe5bb968e1, type: 2}
  m_PrefabInternal: {fileID: 1050795357}
  m_GameObject: {fileID: 491974277}
  m_LocalRotation: {x: 0.0000001563813, y: -0.000000025829262, z: -0.116402015, w: 0.9932022}
  m_LocalPosition: {x: -0.073707886, y: -0.00000017166137, z: -0.0000002479553}
  m_LocalScale: {x: 0.99999994, y: 1, z: 0.99999994}
  m_Children: []
  m_Father: {fileID: 1455029597}
  m_RootOrder: 0
  m_LocalEulerAnglesHint: {x: 0, y: 0, z: 0}
--- !u!1 &501521779
GameObject:
  m_ObjectHideFlags: 0
  m_PrefabParentObject: {fileID: 159878, guid: 03195f095903a914192b43fe5bb968e1, type: 2}
  m_PrefabInternal: {fileID: 1050795357}
  serializedVersion: 5
  m_Component:
  - component: {fileID: 501521780}
  m_Layer: 0
  m_Name: B_L_Finger41
  m_TagString: Untagged
  m_Icon: {fileID: 0}
  m_NavMeshLayer: 0
  m_StaticEditorFlags: 0
  m_IsActive: 1
--- !u!4 &501521780
Transform:
  m_ObjectHideFlags: 0
  m_PrefabParentObject: {fileID: 459886, guid: 03195f095903a914192b43fe5bb968e1, type: 2}
  m_PrefabInternal: {fileID: 1050795357}
  m_GameObject: {fileID: 501521779}
  m_LocalRotation: {x: 0.000000098168655, y: 0.00000033356727, z: -0.11640229, w: 0.99320215}
  m_LocalPosition: {x: -0.06142326, y: 0.00000022888183, z: 0.00000012397766}
  m_LocalScale: {x: 0.99999976, y: 0.99999994, z: 0.99999964}
  m_Children:
  - {fileID: 939805412}
  m_Father: {fileID: 598438001}
  m_RootOrder: 0
  m_LocalEulerAnglesHint: {x: 0, y: 0, z: 0}
--- !u!1 &553371474
GameObject:
  m_ObjectHideFlags: 0
  m_PrefabParentObject: {fileID: 159914, guid: 03195f095903a914192b43fe5bb968e1, type: 2}
  m_PrefabInternal: {fileID: 1050795357}
  serializedVersion: 5
  m_Component:
  - component: {fileID: 553371475}
  m_Layer: 0
  m_Name: B_R_Finger32
  m_TagString: Untagged
  m_Icon: {fileID: 0}
  m_NavMeshLayer: 0
  m_StaticEditorFlags: 0
  m_IsActive: 1
--- !u!4 &553371475
Transform:
  m_ObjectHideFlags: 0
  m_PrefabParentObject: {fileID: 459914, guid: 03195f095903a914192b43fe5bb968e1, type: 2}
  m_PrefabInternal: {fileID: 1050795357}
  m_GameObject: {fileID: 553371474}
  m_LocalRotation: {x: 0.0000002643167, y: -9.712722e-10, z: -0.116402, w: 0.9932022}
  m_LocalPosition: {x: -0.07370796, y: -0.00000019073485, z: -0.00000017166137}
  m_LocalScale: {x: 1.0000001, y: 1, z: 1.0000005}
  m_Children: []
  m_Father: {fileID: 1949396021}
  m_RootOrder: 0
  m_LocalEulerAnglesHint: {x: 0, y: 0, z: 0}
--- !u!1 &566880411
GameObject:
  m_ObjectHideFlags: 0
  m_PrefabParentObject: {fileID: 159874, guid: 03195f095903a914192b43fe5bb968e1, type: 2}
  m_PrefabInternal: {fileID: 1050795357}
  serializedVersion: 5
  m_Component:
  - component: {fileID: 566880412}
  m_Layer: 0
  m_Name: B_L_Finger32
  m_TagString: Untagged
  m_Icon: {fileID: 0}
  m_NavMeshLayer: 0
  m_StaticEditorFlags: 0
  m_IsActive: 1
--- !u!4 &566880412
Transform:
  m_ObjectHideFlags: 0
  m_PrefabParentObject: {fileID: 459882, guid: 03195f095903a914192b43fe5bb968e1, type: 2}
  m_PrefabInternal: {fileID: 1050795357}
  m_GameObject: {fileID: 566880411}
  m_LocalRotation: {x: -0.00000022578263, y: 0.0000002177516, z: -0.11640201, w: 0.9932022}
  m_LocalPosition: {x: -0.07370773, y: 0.00000017166137, z: 0.000000038146972}
  m_LocalScale: {x: 0.99999994, y: 0.99999976, z: 1.0000002}
  m_Children: []
  m_Father: {fileID: 998309140}
  m_RootOrder: 0
  m_LocalEulerAnglesHint: {x: 0, y: 0, z: 0}
--- !u!1 &584631585
GameObject:
  m_ObjectHideFlags: 0
  m_PrefabParentObject: {fileID: 159826, guid: 03195f095903a914192b43fe5bb968e1, type: 2}
  m_PrefabInternal: {fileID: 1050795357}
  serializedVersion: 5
  m_Component:
  - component: {fileID: 584631586}
  m_Layer: 0
  m_Name: B_L_Calf
  m_TagString: Untagged
  m_Icon: {fileID: 0}
  m_NavMeshLayer: 0
  m_StaticEditorFlags: 0
  m_IsActive: 1
--- !u!4 &584631586
Transform:
  m_ObjectHideFlags: 0
  m_PrefabParentObject: {fileID: 459828, guid: 03195f095903a914192b43fe5bb968e1, type: 2}
  m_PrefabInternal: {fileID: 1050795357}
  m_GameObject: {fileID: 584631585}
  m_LocalRotation: {x: -0.0000040043083, y: 0.00000030656216, z: 0.09983331, w: 0.9950042}
  m_LocalPosition: {x: -0.5595049, y: 0.000000009536743, z: 0.000000038146972}
  m_LocalScale: {x: 1.0000002, y: 1.0000002, z: 1}
  m_Children:
  - {fileID: 1640909869}
  m_Father: {fileID: 1613530769}
  m_RootOrder: 0
  m_LocalEulerAnglesHint: {x: 0, y: 0, z: 0}
--- !u!1 &586424582
GameObject:
  m_ObjectHideFlags: 0
  m_PrefabParentObject: {fileID: 159848, guid: 03195f095903a914192b43fe5bb968e1, type: 2}
  m_PrefabInternal: {fileID: 1050795357}
  serializedVersion: 5
  m_Component:
  - component: {fileID: 586424583}
  m_Layer: 0
  m_Name: B_L_Forearm
  m_TagString: Untagged
  m_Icon: {fileID: 0}
  m_NavMeshLayer: 0
  m_StaticEditorFlags: 0
  m_IsActive: 1
--- !u!4 &586424583
Transform:
  m_ObjectHideFlags: 0
  m_PrefabParentObject: {fileID: 459856, guid: 03195f095903a914192b43fe5bb968e1, type: 2}
  m_PrefabInternal: {fileID: 1050795357}
  m_GameObject: {fileID: 586424582}
  m_LocalRotation: {x: 0.000000027604836, y: 0.000000032721672, z: 0.09983333, w: 0.9950042}
  m_LocalPosition: {x: -0.37960723, y: -0.000000057220458, z: 0.00000015258789}
  m_LocalScale: {x: 1.0000001, y: 1.0000001, z: 0.9999997}
  m_Children:
  - {fileID: 464745159}
  m_Father: {fileID: 1983572118}
  m_RootOrder: 0
  m_LocalEulerAnglesHint: {x: 0, y: 0, z: 0}
--- !u!1 &598438000
GameObject:
  m_ObjectHideFlags: 0
  m_PrefabParentObject: {fileID: 159876, guid: 03195f095903a914192b43fe5bb968e1, type: 2}
  m_PrefabInternal: {fileID: 1050795357}
  serializedVersion: 5
  m_Component:
  - component: {fileID: 598438001}
  m_Layer: 0
  m_Name: B_L_Finger4
  m_TagString: Untagged
  m_Icon: {fileID: 0}
  m_NavMeshLayer: 0
  m_StaticEditorFlags: 0
  m_IsActive: 1
--- !u!4 &598438001
Transform:
  m_ObjectHideFlags: 0
  m_PrefabParentObject: {fileID: 459884, guid: 03195f095903a914192b43fe5bb968e1, type: 2}
  m_PrefabInternal: {fileID: 1050795357}
  m_GameObject: {fileID: 598438000}
  m_LocalRotation: {x: -0.00039956573, y: 0.00000021979355, z: -0.0000000036374677,
    w: 0.99999994}
  m_LocalPosition: {x: -0.17157638, y: -0.03489666, z: 0.061353844}
  m_LocalScale: {x: 1.0000002, y: 1.0000002, z: 0.99999994}
  m_Children:
  - {fileID: 501521780}
  m_Father: {fileID: 464745159}
  m_RootOrder: 4
  m_LocalEulerAnglesHint: {x: 0, y: 0, z: 0}
--- !u!1 &616127555
GameObject:
  m_ObjectHideFlags: 0
  m_PrefabParentObject: {fileID: 159822, guid: 03195f095903a914192b43fe5bb968e1, type: 2}
  m_PrefabInternal: {fileID: 1050795357}
  serializedVersion: 5
  m_Component:
  - component: {fileID: 616127556}
  m_Layer: 0
  m_Name: B_Pelvis
  m_TagString: Untagged
  m_Icon: {fileID: 0}
  m_NavMeshLayer: 0
  m_StaticEditorFlags: 0
  m_IsActive: 1
--- !u!4 &616127556
Transform:
  m_ObjectHideFlags: 0
  m_PrefabParentObject: {fileID: 459822, guid: 03195f095903a914192b43fe5bb968e1, type: 2}
  m_PrefabInternal: {fileID: 1050795357}
  m_GameObject: {fileID: 616127555}
  m_LocalRotation: {x: -0.49999964, y: 0.5000004, z: 0.49999964, w: 0.5000004}
  m_LocalPosition: {x: -0.0050410083, y: -0.000000016315786, z: 1.3066297}
  m_LocalScale: {x: 1, y: 1, z: 1}
  m_Children:
  - {fileID: 1613530769}
  - {fileID: 872294684}
  - {fileID: 931519445}
  m_Father: {fileID: 1740568340}
  m_RootOrder: 0
  m_LocalEulerAnglesHint: {x: 0, y: 0, z: 0}
--- !u!1 &620157112
GameObject:
  m_ObjectHideFlags: 0
  m_PrefabParentObject: {fileID: 159896, guid: 03195f095903a914192b43fe5bb968e1, type: 2}
  m_PrefabInternal: {fileID: 1050795357}
  serializedVersion: 5
  m_Component:
  - component: {fileID: 620157113}
  m_Layer: 0
  m_Name: B_R_Finger01
  m_TagString: Untagged
  m_Icon: {fileID: 0}
  m_NavMeshLayer: 0
  m_StaticEditorFlags: 0
  m_IsActive: 1
--- !u!4 &620157113
Transform:
  m_ObjectHideFlags: 0
  m_PrefabParentObject: {fileID: 459894, guid: 03195f095903a914192b43fe5bb968e1, type: 2}
  m_PrefabInternal: {fileID: 1050795357}
  m_GameObject: {fileID: 620157112}
  m_LocalRotation: {x: -0.000000014566279, y: 0.0000002117513, z: -0.11640206, w: 0.9932022}
  m_LocalPosition: {x: -0.061423108, y: -0.00000015258789, z: 0.000000019073486}
  m_LocalScale: {x: 0.9999999, y: 1.0000001, z: 1.0000001}
  m_Children:
  - {fileID: 171066304}
  m_Father: {fileID: 53217428}
  m_RootOrder: 0
  m_LocalEulerAnglesHint: {x: 0, y: 0, z: 0}
--- !u!4 &683289462
Transform:
  m_ObjectHideFlags: 0
  m_PrefabParentObject: {fileID: 400000, guid: 03195f095903a914192b43fe5bb968e1, type: 2}
  m_PrefabInternal: {fileID: 1050795357}
  m_GameObject: {fileID: 1186424471}
  m_LocalRotation: {x: 0, y: 0, z: 0, w: 1}
  m_LocalPosition: {x: 3, y: 0, z: 0}
  m_LocalScale: {x: 1, y: 1, z: 1}
  m_Children:
  - {fileID: 939668606}
  - {fileID: 1740568340}
  - {fileID: 1612309661}
  m_Father: {fileID: 0}
  m_RootOrder: 0
  m_LocalEulerAnglesHint: {x: 0, y: 0, z: 0}
--- !u!1 &684824002
GameObject:
  m_ObjectHideFlags: 0
  m_PrefabParentObject: {fileID: 159864, guid: 03195f095903a914192b43fe5bb968e1, type: 2}
  m_PrefabInternal: {fileID: 1050795357}
  serializedVersion: 5
  m_Component:
  - component: {fileID: 684824003}
  m_Layer: 0
  m_Name: B_L_Finger2
  m_TagString: Untagged
  m_Icon: {fileID: 0}
  m_NavMeshLayer: 0
  m_StaticEditorFlags: 0
  m_IsActive: 1
--- !u!4 &684824003
Transform:
  m_ObjectHideFlags: 0
  m_PrefabParentObject: {fileID: 459872, guid: 03195f095903a914192b43fe5bb968e1, type: 2}
  m_PrefabInternal: {fileID: 1050795357}
  m_GameObject: {fileID: 684824002}
  m_LocalRotation: {x: -0.00039815757, y: 0.00000020484495, z: 0.000000115565555,
    w: 0.99999994}
  m_LocalPosition: {x: -0.17157653, y: -0.03496109, z: -0.01949745}
  m_LocalScale: {x: 1.0000001, y: 1.0000002, z: 0.99999994}
  m_Children:
  - {fileID: 335907381}
  m_Father: {fileID: 464745159}
  m_RootOrder: 2
  m_LocalEulerAnglesHint: {x: 0, y: 0, z: 0}
--- !u!1 &846058869
GameObject:
  m_ObjectHideFlags: 0
  m_PrefabParentObject: {fileID: 159908, guid: 03195f095903a914192b43fe5bb968e1, type: 2}
  m_PrefabInternal: {fileID: 1050795357}
  serializedVersion: 5
  m_Component:
  - component: {fileID: 846058870}
  m_Layer: 0
  m_Name: B_R_Finger22
  m_TagString: Untagged
  m_Icon: {fileID: 0}
  m_NavMeshLayer: 0
  m_StaticEditorFlags: 0
  m_IsActive: 1
--- !u!4 &846058870
Transform:
  m_ObjectHideFlags: 0
  m_PrefabParentObject: {fileID: 459908, guid: 03195f095903a914192b43fe5bb968e1, type: 2}
  m_PrefabInternal: {fileID: 1050795357}
  m_GameObject: {fileID: 846058869}
  m_LocalRotation: {x: -0.000000024917053, y: -0.00000000458133, z: -0.11640198, w: 0.9932022}
  m_LocalPosition: {x: -0.08599243, y: -0.000000057220458, z: 0.00000025749205}
  m_LocalScale: {x: 0.99999994, y: 0.99999964, z: 0.9999999}
  m_Children: []
  m_Father: {fileID: 1280464190}
  m_RootOrder: 0
  m_LocalEulerAnglesHint: {x: 0, y: 0, z: 0}
--- !u!1 &863879247
GameObject:
  m_ObjectHideFlags: 0
  m_PrefabParentObject: {fileID: 159904, guid: 03195f095903a914192b43fe5bb968e1, type: 2}
  m_PrefabInternal: {fileID: 1050795357}
  serializedVersion: 5
  m_Component:
  - component: {fileID: 863879248}
  m_Layer: 0
  m_Name: B_R_Finger2
  m_TagString: Untagged
  m_Icon: {fileID: 0}
  m_NavMeshLayer: 0
  m_StaticEditorFlags: 0
  m_IsActive: 1
--- !u!4 &863879248
Transform:
  m_ObjectHideFlags: 0
  m_PrefabParentObject: {fileID: 459904, guid: 03195f095903a914192b43fe5bb968e1, type: 2}
  m_PrefabInternal: {fileID: 1050795357}
  m_GameObject: {fileID: 863879247}
  m_LocalRotation: {x: 0.0003981362, y: -0.00000005960909, z: -0.00000001115214, w: 0.99999994}
  m_LocalPosition: {x: -0.1715767, y: -0.034960747, z: 0.019497508}
  m_LocalScale: {x: 1, y: 1.0000001, z: 0.99999994}
  m_Children:
  - {fileID: 1280464190}
  m_Father: {fileID: 1343890179}
  m_RootOrder: 2
  m_LocalEulerAnglesHint: {x: 0, y: 0, z: 0}
--- !u!1 &872294683
GameObject:
  m_ObjectHideFlags: 0
  m_PrefabParentObject: {fileID: 159832, guid: 03195f095903a914192b43fe5bb968e1, type: 2}
  m_PrefabInternal: {fileID: 1050795357}
  serializedVersion: 5
  m_Component:
  - component: {fileID: 872294684}
  m_Layer: 0
  m_Name: B_R_Thigh
  m_TagString: Untagged
  m_Icon: {fileID: 0}
  m_NavMeshLayer: 0
  m_StaticEditorFlags: 0
  m_IsActive: 1
--- !u!4 &872294684
Transform:
  m_ObjectHideFlags: 0
  m_PrefabParentObject: {fileID: 459824, guid: 03195f095903a914192b43fe5bb968e1, type: 2}
  m_PrefabInternal: {fileID: 1050795357}
  m_GameObject: {fileID: 872294683}
  m_LocalRotation: {x: -0.04997973, y: 0.99875027, z: 0.0000016922992, w: -0.00000012497962}
  m_LocalPosition: {x: -0, y: -0.00000008612871, z: -0.1043393}
  m_LocalScale: {x: 0.9999999, y: 1, z: 1}
  m_Children:
  - {fileID: 1960239221}
  m_Father: {fileID: 616127556}
  m_RootOrder: 1
  m_LocalEulerAnglesHint: {x: 0, y: 0, z: 0}
--- !u!1 &931519444
GameObject:
  m_ObjectHideFlags: 0
  m_PrefabParentObject: {fileID: 159840, guid: 03195f095903a914192b43fe5bb968e1, type: 2}
  m_PrefabInternal: {fileID: 1050795357}
  serializedVersion: 5
  m_Component:
  - component: {fileID: 931519445}
  m_Layer: 0
  m_Name: B_Spine
  m_TagString: Untagged
  m_Icon: {fileID: 0}
  m_NavMeshLayer: 0
  m_StaticEditorFlags: 0
  m_IsActive: 1
--- !u!4 &931519445
Transform:
  m_ObjectHideFlags: 0
  m_PrefabParentObject: {fileID: 459826, guid: 03195f095903a914192b43fe5bb968e1, type: 2}
  m_PrefabInternal: {fileID: 1050795357}
  m_GameObject: {fileID: 931519444}
  m_LocalRotation: {x: -0.0000016033553, y: -0.000000021770637, z: -0.00039744377,
    w: 0.99999994}
  m_LocalPosition: {x: -0.12868606, y: -0.00017150372, z: -0.0000000053875464}
  m_LocalScale: {x: 1, y: 1, z: 1}
  m_Children:
  - {fileID: 1776437145}
  m_Father: {fileID: 616127556}
  m_RootOrder: 2
  m_LocalEulerAnglesHint: {x: 0, y: 0, z: 0}
--- !u!1 &939668605
GameObject:
  m_ObjectHideFlags: 0
  m_PrefabParentObject: {fileID: 103024, guid: 03195f095903a914192b43fe5bb968e1, type: 2}
  m_PrefabInternal: {fileID: 1050795357}
  serializedVersion: 5
  m_Component:
  - component: {fileID: 939668606}
  - component: {fileID: 939668607}
  m_Layer: 0
  m_Name: Mesh_Sorceress
  m_TagString: Untagged
  m_Icon: {fileID: 0}
  m_NavMeshLayer: 0
  m_StaticEditorFlags: 0
  m_IsActive: 1
--- !u!4 &939668606
Transform:
  m_ObjectHideFlags: 0
  m_PrefabParentObject: {fileID: 403024, guid: 03195f095903a914192b43fe5bb968e1, type: 2}
  m_PrefabInternal: {fileID: 1050795357}
  m_GameObject: {fileID: 939668605}
  m_LocalRotation: {x: -0.7071068, y: 0, z: -0, w: 0.7071068}
  m_LocalPosition: {x: 0, y: 0, z: 0}
  m_LocalScale: {x: 1, y: 1, z: 1}
  m_Children: []
  m_Father: {fileID: 683289462}
  m_RootOrder: 0
  m_LocalEulerAnglesHint: {x: 0, y: 0, z: 0}
--- !u!137 &939668607
SkinnedMeshRenderer:
  m_ObjectHideFlags: 0
  m_PrefabParentObject: {fileID: 13703024, guid: 03195f095903a914192b43fe5bb968e1,
    type: 2}
  m_PrefabInternal: {fileID: 1050795357}
  m_GameObject: {fileID: 939668605}
  m_Enabled: 1
  m_CastShadows: 1
  m_ReceiveShadows: 1
  m_MotionVectors: 1
  m_LightProbeUsage: 0
  m_ReflectionProbeUsage: 1
  m_Materials:
  - {fileID: 2100000, guid: 6c7601037374e0d4aaeb4f27e01bccb1, type: 2}
  m_StaticBatchInfo:
    firstSubMesh: 0
    subMeshCount: 0
  m_StaticBatchRoot: {fileID: 0}
  m_ProbeAnchor: {fileID: 0}
  m_LightProbeVolumeOverride: {fileID: 0}
  m_ScaleInLightmap: 1
  m_PreserveUVs: 0
  m_IgnoreNormalsForChartDetection: 0
  m_ImportantGI: 0
  m_SelectedEditorRenderState: 3
  m_MinimumChartSize: 4
  m_AutoUVMaxDistance: 0.5
  m_AutoUVMaxAngle: 89
  m_LightmapParameters: {fileID: 0}
  m_SortingLayerID: 0
  m_SortingLayer: 0
  m_SortingOrder: 0
  serializedVersion: 2
  m_Quality: 0
  m_UpdateWhenOffscreen: 0
  m_SkinnedMotionVectors: 1
  m_Mesh: {fileID: 4300004, guid: 6825cd5362ce80a4e9da414c684b6aeb, type: 3}
  m_Bones:
  - {fileID: 1766276405}
  - {fileID: 1983572118}
  - {fileID: 1780328372}
  - {fileID: 1613530769}
  - {fileID: 586424583}
  - {fileID: 616127556}
  - {fileID: 872294684}
  - {fileID: 1219345670}
  - {fileID: 166314207}
  - {fileID: 965176547}
  - {fileID: 1519161265}
  - {fileID: 1776437145}
  - {fileID: 931519445}
  - {fileID: 464745159}
  - {fileID: 1508426080}
  - {fileID: 684824003}
  - {fileID: 37150742}
  - {fileID: 998309140}
  - {fileID: 598438001}
  - {fileID: 501521780}
  - {fileID: 1455029597}
  - {fileID: 1084397323}
  - {fileID: 1250848281}
  - {fileID: 1851103638}
  - {fileID: 491974278}
  - {fileID: 335907381}
  - {fileID: 2053519572}
  - {fileID: 566880412}
  - {fileID: 939805412}
  - {fileID: 1343890179}
  - {fileID: 53217428}
  - {fileID: 863879248}
  - {fileID: 1151619612}
  - {fileID: 1949396021}
  - {fileID: 960098523}
  - {fileID: 1468851501}
  - {fileID: 162912525}
  - {fileID: 620157113}
  - {fileID: 171066304}
  - {fileID: 1469095611}
  - {fileID: 1437563058}
  - {fileID: 1280464190}
  - {fileID: 846058870}
  - {fileID: 553371475}
  - {fileID: 1402008009}
  - {fileID: 584631586}
  - {fileID: 1740568340}
  - {fileID: 1640909869}
  - {fileID: 951029714}
  - {fileID: 1960239221}
  - {fileID: 1063050389}
  - {fileID: 1867289312}
  m_BlendShapeWeights: []
  m_RootBone: {fileID: 1740568340}
  m_AABB:
    m_Center: {x: -0.147212, y: 0.0000001937151, z: 1.184102}
    m_Extent: {x: 0.2981105, y: 0.40976048, z: 1.1973333}
  m_DirtyAABB: 0
--- !u!1 &939805411
GameObject:
  m_ObjectHideFlags: 0
  m_PrefabParentObject: {fileID: 159880, guid: 03195f095903a914192b43fe5bb968e1, type: 2}
  m_PrefabInternal: {fileID: 1050795357}
  serializedVersion: 5
  m_Component:
  - component: {fileID: 939805412}
  m_Layer: 0
  m_Name: B_L_Finger42
  m_TagString: Untagged
  m_Icon: {fileID: 0}
  m_NavMeshLayer: 0
  m_StaticEditorFlags: 0
  m_IsActive: 1
--- !u!4 &939805412
Transform:
  m_ObjectHideFlags: 0
  m_PrefabParentObject: {fileID: 459888, guid: 03195f095903a914192b43fe5bb968e1, type: 2}
  m_PrefabInternal: {fileID: 1050795357}
  m_GameObject: {fileID: 939805411}
  m_LocalRotation: {x: 0.000000010640656, y: 0.0000002988159, z: -0.1164018, w: 0.9932022}
  m_LocalPosition: {x: -0.061423108, y: -0.0000001335144, z: -0.00000019073485}
  m_LocalScale: {x: 1, y: 1.0000001, z: 0.99999994}
  m_Children: []
  m_Father: {fileID: 501521780}
  m_RootOrder: 0
  m_LocalEulerAnglesHint: {x: 0, y: 0, z: 0}
--- !u!1 &951029713
GameObject:
  m_ObjectHideFlags: 0
  m_PrefabParentObject: {fileID: 159830, guid: 03195f095903a914192b43fe5bb968e1, type: 2}
  m_PrefabInternal: {fileID: 1050795357}
  serializedVersion: 5
  m_Component:
  - component: {fileID: 951029714}
  m_Layer: 0
  m_Name: B_L_Toe0
  m_TagString: Untagged
  m_Icon: {fileID: 0}
  m_NavMeshLayer: 0
  m_StaticEditorFlags: 0
  m_IsActive: 1
--- !u!4 &951029714
Transform:
  m_ObjectHideFlags: 0
  m_PrefabParentObject: {fileID: 459836, guid: 03195f095903a914192b43fe5bb968e1, type: 2}
  m_PrefabInternal: {fileID: 1050795357}
  m_GameObject: {fileID: 951029713}
  m_LocalRotation: {x: -0.000000019986096, y: 0.000000019986098, z: -0.7071068, w: 0.7071068}
  m_LocalPosition: {x: -0.1708812, y: 0.25053582, z: 0}
  m_LocalScale: {x: 1, y: 1, z: 1}
  m_Children: []
  m_Father: {fileID: 1640909869}
  m_RootOrder: 0
  m_LocalEulerAnglesHint: {x: 0, y: 0, z: 0}
--- !u!1 &960098522
GameObject:
  m_ObjectHideFlags: 0
  m_PrefabParentObject: {fileID: 159916, guid: 03195f095903a914192b43fe5bb968e1, type: 2}
  m_PrefabInternal: {fileID: 1050795357}
  serializedVersion: 5
  m_Component:
  - component: {fileID: 960098523}
  m_Layer: 0
  m_Name: B_R_Finger4
  m_TagString: Untagged
  m_Icon: {fileID: 0}
  m_NavMeshLayer: 0
  m_StaticEditorFlags: 0
  m_IsActive: 1
--- !u!4 &960098523
Transform:
  m_ObjectHideFlags: 0
  m_PrefabParentObject: {fileID: 459916, guid: 03195f095903a914192b43fe5bb968e1, type: 2}
  m_PrefabInternal: {fileID: 1050795357}
  m_GameObject: {fileID: 960098522}
  m_LocalRotation: {x: 0.00039836214, y: -0.000000048407983, z: 0.00000005217334,
    w: 0.99999994}
  m_LocalPosition: {x: -0.17157677, y: -0.034897003, z: -0.061354082}
  m_LocalScale: {x: 1.0000002, y: 1.0000011, z: 1.0000011}
  m_Children:
  - {fileID: 1468851501}
  m_Father: {fileID: 1343890179}
  m_RootOrder: 4
  m_LocalEulerAnglesHint: {x: 0, y: 0, z: 0}
--- !u!1 &965176546
GameObject:
  m_ObjectHideFlags: 0
  m_PrefabParentObject: {fileID: 159886, guid: 03195f095903a914192b43fe5bb968e1, type: 2}
  m_PrefabInternal: {fileID: 1050795357}
  serializedVersion: 5
  m_Component:
  - component: {fileID: 965176547}
  m_Layer: 0
  m_Name: B_R_Clavicle
  m_TagString: Untagged
  m_Icon: {fileID: 0}
  m_NavMeshLayer: 0
  m_StaticEditorFlags: 0
  m_IsActive: 1
--- !u!4 &965176547
Transform:
  m_ObjectHideFlags: 0
  m_PrefabParentObject: {fileID: 459852, guid: 03195f095903a914192b43fe5bb968e1, type: 2}
  m_PrefabInternal: {fileID: 1050795357}
  m_GameObject: {fileID: 965176546}
  m_LocalRotation: {x: 0.70710677, y: 0.00028147915, z: 0.70710677, w: -0.00028147915}
  m_LocalPosition: {x: -0.29094252, y: 0.00000010505318, z: -0.057713855}
  m_LocalScale: {x: 1, y: 1, z: 1}
  m_Children:
  - {fileID: 1519161265}
  m_Father: {fileID: 1776437145}
  m_RootOrder: 2
  m_LocalEulerAnglesHint: {x: 0, y: 0, z: 0}
--- !u!1 &998309139
GameObject:
  m_ObjectHideFlags: 0
  m_PrefabParentObject: {fileID: 159872, guid: 03195f095903a914192b43fe5bb968e1, type: 2}
  m_PrefabInternal: {fileID: 1050795357}
  serializedVersion: 5
  m_Component:
  - component: {fileID: 998309140}
  m_Layer: 0
  m_Name: B_L_Finger31
  m_TagString: Untagged
  m_Icon: {fileID: 0}
  m_NavMeshLayer: 0
  m_StaticEditorFlags: 0
  m_IsActive: 1
--- !u!4 &998309140
Transform:
  m_ObjectHideFlags: 0
  m_PrefabParentObject: {fileID: 459880, guid: 03195f095903a914192b43fe5bb968e1, type: 2}
  m_PrefabInternal: {fileID: 1050795357}
  m_GameObject: {fileID: 998309139}
  m_LocalRotation: {x: -0.00000012079937, y: -0.00000009461531, z: -0.11640205, w: 0.9932022}
  m_LocalPosition: {x: -0.073707886, y: 0.000000114440915, z: 0}
  m_LocalScale: {x: 1, y: 0.99999976, z: 1.0000001}
  m_Children:
  - {fileID: 566880412}
  m_Father: {fileID: 37150742}
  m_RootOrder: 0
  m_LocalEulerAnglesHint: {x: 0, y: 0, z: 0}
--- !u!1001 &1050795357
Prefab:
  m_ObjectHideFlags: 0
  serializedVersion: 2
  m_Modification:
    m_TransformParent: {fileID: 0}
    m_Modifications:
    - target: {fileID: 400000, guid: 03195f095903a914192b43fe5bb968e1, type: 2}
      propertyPath: m_LocalPosition.x
      value: 3
      objectReference: {fileID: 0}
    - target: {fileID: 400000, guid: 03195f095903a914192b43fe5bb968e1, type: 2}
      propertyPath: m_LocalPosition.y
      value: 0
      objectReference: {fileID: 0}
    - target: {fileID: 400000, guid: 03195f095903a914192b43fe5bb968e1, type: 2}
      propertyPath: m_LocalPosition.z
      value: 0
      objectReference: {fileID: 0}
    - target: {fileID: 400000, guid: 03195f095903a914192b43fe5bb968e1, type: 2}
      propertyPath: m_LocalRotation.x
      value: 0
      objectReference: {fileID: 0}
    - target: {fileID: 400000, guid: 03195f095903a914192b43fe5bb968e1, type: 2}
      propertyPath: m_LocalRotation.y
      value: 0
      objectReference: {fileID: 0}
    - target: {fileID: 400000, guid: 03195f095903a914192b43fe5bb968e1, type: 2}
      propertyPath: m_LocalRotation.z
      value: 0
      objectReference: {fileID: 0}
    - target: {fileID: 400000, guid: 03195f095903a914192b43fe5bb968e1, type: 2}
      propertyPath: m_LocalRotation.w
      value: 1
      objectReference: {fileID: 0}
    - target: {fileID: 400000, guid: 03195f095903a914192b43fe5bb968e1, type: 2}
      propertyPath: m_RootOrder
      value: 0
      objectReference: {fileID: 0}
    - target: {fileID: 11497932, guid: 03195f095903a914192b43fe5bb968e1, type: 2}
      propertyPath: target
      value: 
      objectReference: {fileID: 0}
    m_RemovedComponents: []
  m_ParentPrefab: {fileID: 100100000, guid: 03195f095903a914192b43fe5bb968e1, type: 2}
  m_RootGameObject: {fileID: 1186424471}
  m_IsPrefabParent: 0
--- !u!1 &1061801964
GameObject:
  m_ObjectHideFlags: 0
  m_PrefabParentObject: {fileID: 0}
  m_PrefabInternal: {fileID: 0}
  serializedVersion: 5
  m_Component:
  - component: {fileID: 1061801966}
  - component: {fileID: 1061801965}
  m_Layer: 0
  m_Name: Directional light
  m_TagString: Untagged
  m_Icon: {fileID: 0}
  m_NavMeshLayer: 0
  m_StaticEditorFlags: 0
  m_IsActive: 1
--- !u!108 &1061801965
Light:
  m_ObjectHideFlags: 0
  m_PrefabParentObject: {fileID: 0}
  m_PrefabInternal: {fileID: 0}
  m_GameObject: {fileID: 1061801964}
  m_Enabled: 1
  serializedVersion: 8
  m_Type: 1
  m_Color: {r: 1, g: 1, b: 1, a: 1}
  m_Intensity: 1
  m_Range: 10
  m_SpotAngle: 30
  m_CookieSize: 10
  m_Shadows:
    m_Type: 1
    m_Resolution: -1
    m_CustomResolution: -1
    m_Strength: 1
    m_Bias: 0.05
    m_NormalBias: 0.4
    m_NearPlane: 0.2
  m_Cookie: {fileID: 0}
  m_DrawHalo: 0
  m_Flare: {fileID: 0}
  m_RenderMode: 0
  m_CullingMask:
    serializedVersion: 2
    m_Bits: 4294967295
  m_Lightmapping: 1
  m_AreaSize: {x: 1, y: 1}
  m_BounceIntensity: 1
  m_ColorTemperature: 6570
  m_UseColorTemperature: 0
  m_ShadowRadius: 0
  m_ShadowAngle: 0
--- !u!4 &1061801966
Transform:
  m_ObjectHideFlags: 0
  m_PrefabParentObject: {fileID: 0}
  m_PrefabInternal: {fileID: 0}
  m_GameObject: {fileID: 1061801964}
  m_LocalRotation: {x: 0.57087165, y: -0.56922644, z: 0.119610935, w: 0.5794654}
  m_LocalPosition: {x: 0.56189215, y: 3.2153056, z: 0.4232282}
  m_LocalScale: {x: 1, y: 1, z: 1}
  m_Children: []
  m_Father: {fileID: 0}
  m_RootOrder: 2
  m_LocalEulerAnglesHint: {x: 0, y: 0, z: 0}
--- !u!1 &1063050388
GameObject:
  m_ObjectHideFlags: 0
  m_PrefabParentObject: {fileID: 159836, guid: 03195f095903a914192b43fe5bb968e1, type: 2}
  m_PrefabInternal: {fileID: 1050795357}
  serializedVersion: 5
  m_Component:
  - component: {fileID: 1063050389}
  m_Layer: 0
  m_Name: B_R_Foot
  m_TagString: Untagged
  m_Icon: {fileID: 0}
  m_NavMeshLayer: 0
  m_StaticEditorFlags: 0
  m_IsActive: 1
--- !u!4 &1063050389
Transform:
  m_ObjectHideFlags: 0
  m_PrefabParentObject: {fileID: 459834, guid: 03195f095903a914192b43fe5bb968e1, type: 2}
  m_PrefabInternal: {fileID: 1050795357}
  m_GameObject: {fileID: 1063050388}
  m_LocalRotation: {x: 0.00000002681059, y: -0.00000004510774, z: -0.049979202, w: 0.99875027}
  m_LocalPosition: {x: -0.55950487, y: -0.0000000023841857, z: 0.000000028610229}
  m_LocalScale: {x: 0.9999998, y: 0.9999997, z: 1}
  m_Children:
  - {fileID: 1867289312}
  m_Father: {fileID: 1960239221}
  m_RootOrder: 0
  m_LocalEulerAnglesHint: {x: 0, y: 0, z: 0}
--- !u!1 &1084397322
GameObject:
  m_ObjectHideFlags: 0
  m_PrefabParentObject: {fileID: 159854, guid: 03195f095903a914192b43fe5bb968e1, type: 2}
  m_PrefabInternal: {fileID: 1050795357}
  serializedVersion: 5
  m_Component:
  - component: {fileID: 1084397323}
  m_Layer: 0
  m_Name: B_L_Finger01
  m_TagString: Untagged
  m_Icon: {fileID: 0}
  m_NavMeshLayer: 0
  m_StaticEditorFlags: 0
  m_IsActive: 1
--- !u!4 &1084397323
Transform:
  m_ObjectHideFlags: 0
  m_PrefabParentObject: {fileID: 459862, guid: 03195f095903a914192b43fe5bb968e1, type: 2}
  m_PrefabInternal: {fileID: 1050795357}
  m_GameObject: {fileID: 1084397322}
  m_LocalRotation: {x: 0.000000011678515, y: 0.00000004364074, z: -0.11640196, w: 0.9932022}
  m_LocalPosition: {x: -0.061423108, y: -0.000000038146972, z: -0.00000019073485}
  m_LocalScale: {x: 1.0000001, y: 0.9999999, z: 0.99999964}
  m_Children:
  - {fileID: 1250848281}
  m_Father: {fileID: 1508426080}
  m_RootOrder: 0
  m_LocalEulerAnglesHint: {x: 0, y: 0, z: 0}
--- !u!1 &1151619611
GameObject:
  m_ObjectHideFlags: 0
  m_PrefabParentObject: {fileID: 159910, guid: 03195f095903a914192b43fe5bb968e1, type: 2}
  m_PrefabInternal: {fileID: 1050795357}
  serializedVersion: 5
  m_Component:
  - component: {fileID: 1151619612}
  m_Layer: 0
  m_Name: B_R_Finger3
  m_TagString: Untagged
  m_Icon: {fileID: 0}
  m_NavMeshLayer: 0
  m_StaticEditorFlags: 0
  m_IsActive: 1
--- !u!4 &1151619612
Transform:
  m_ObjectHideFlags: 0
  m_PrefabParentObject: {fileID: 459910, guid: 03195f095903a914192b43fe5bb968e1, type: 2}
  m_PrefabInternal: {fileID: 1050795357}
  m_GameObject: {fileID: 1151619611}
  m_LocalRotation: {x: 0.00039812917, y: 0.000000014904128, z: 0.0000000074446485,
    w: 0.99999994}
  m_LocalPosition: {x: -0.17157677, y: -0.034928665, z: -0.020928297}
  m_LocalScale: {x: 0.9999999, y: 1.0000002, z: 1.0000002}
  m_Children:
  - {fileID: 1949396021}
  m_Father: {fileID: 1343890179}
  m_RootOrder: 3
  m_LocalEulerAnglesHint: {x: 0, y: 0, z: 0}
--- !u!1 &1186424471
GameObject:
  m_ObjectHideFlags: 0
  m_PrefabParentObject: {fileID: 100000, guid: 03195f095903a914192b43fe5bb968e1, type: 2}
  m_PrefabInternal: {fileID: 1050795357}
  serializedVersion: 5
  m_Component:
  - component: {fileID: 683289462}
  - component: {fileID: 1186424473}
  - component: {fileID: 1186424472}
  m_Layer: 0
  m_Name: Sorceress Warrior
  m_TagString: Untagged
  m_Icon: {fileID: 0}
  m_NavMeshLayer: 0
  m_StaticEditorFlags: 0
  m_IsActive: 1
--- !u!114 &1186424472
MonoBehaviour:
  m_ObjectHideFlags: 0
  m_PrefabParentObject: {fileID: 11497932, guid: 03195f095903a914192b43fe5bb968e1,
    type: 2}
  m_PrefabInternal: {fileID: 1050795357}
  m_GameObject: {fileID: 1186424471}
  m_Enabled: 1
  m_EditorHideFlags: 0
  m_Script: {fileID: 11500000, guid: 7f7ef17c21ec457409514db055acb92a, type: 3}
  m_Name: 
  m_EditorClassIdentifier: 
  animator: {fileID: 1186424473}
  warrior: 3
--- !u!95 &1186424473
Animator:
  serializedVersion: 3
  m_ObjectHideFlags: 0
  m_PrefabParentObject: {fileID: 9590292, guid: 03195f095903a914192b43fe5bb968e1,
    type: 2}
  m_PrefabInternal: {fileID: 1050795357}
  m_GameObject: {fileID: 1186424471}
  m_Enabled: 1
  m_Avatar: {fileID: 9000000, guid: 6825cd5362ce80a4e9da414c684b6aeb, type: 3}
  m_Controller: {fileID: 9100000, guid: 6c20c02fbae58784688d4fb840e4d838, type: 2}
  m_CullingMode: 1
  m_UpdateMode: 0
  m_ApplyRootMotion: 1
  m_LinearVelocityBlending: 0
  m_WarningMessage: 
  m_HasTransformHierarchy: 1
  m_AllowConstantClipSamplingOptimization: 1
--- !u!1 &1219345669
GameObject:
  m_ObjectHideFlags: 0
  m_PrefabParentObject: {fileID: 159890, guid: 03195f095903a914192b43fe5bb968e1, type: 2}
  m_PrefabInternal: {fileID: 1050795357}
  serializedVersion: 5
  m_Component:
  - component: {fileID: 1219345670}
  m_Layer: 0
  m_Name: B_R_Forearm
  m_TagString: Untagged
  m_Icon: {fileID: 0}
  m_NavMeshLayer: 0
  m_StaticEditorFlags: 0
  m_IsActive: 1
--- !u!4 &1219345670
Transform:
  m_ObjectHideFlags: 0
  m_PrefabParentObject: {fileID: 459854, guid: 03195f095903a914192b43fe5bb968e1, type: 2}
  m_PrefabInternal: {fileID: 1050795357}
  m_GameObject: {fileID: 1219345669}
  m_LocalRotation: {x: 0.000000093587474, y: 0.000000028110009, z: 0.09983303, w: 0.99500424}
  m_LocalPosition: {x: -0.37960723, y: 0.000000057220458, z: 0.00000015258789}
  m_LocalScale: {x: 0.9999998, y: 0.99999994, z: 1.0000002}
  m_Children:
  - {fileID: 1343890179}
  m_Father: {fileID: 1519161265}
  m_RootOrder: 0
  m_LocalEulerAnglesHint: {x: 0, y: 0, z: 0}
--- !u!1 &1250848280
GameObject:
  m_ObjectHideFlags: 0
  m_PrefabParentObject: {fileID: 159856, guid: 03195f095903a914192b43fe5bb968e1, type: 2}
  m_PrefabInternal: {fileID: 1050795357}
  serializedVersion: 5
  m_Component:
  - component: {fileID: 1250848281}
  m_Layer: 0
  m_Name: B_L_Finger02
  m_TagString: Untagged
  m_Icon: {fileID: 0}
  m_NavMeshLayer: 0
  m_StaticEditorFlags: 0
  m_IsActive: 1
--- !u!4 &1250848281
Transform:
  m_ObjectHideFlags: 0
  m_PrefabParentObject: {fileID: 459864, guid: 03195f095903a914192b43fe5bb968e1, type: 2}
  m_PrefabInternal: {fileID: 1050795357}
  m_GameObject: {fileID: 1250848280}
  m_LocalRotation: {x: -0.000000060934, y: -0.000000007861759, z: -0.1164021, w: 0.9932022}
  m_LocalPosition: {x: -0.06142326, y: 0, z: 0.00000020980835}
  m_LocalScale: {x: 1.0000001, y: 0.99999994, z: 1}
  m_Children: []
  m_Father: {fileID: 1084397323}
  m_RootOrder: 0
  m_LocalEulerAnglesHint: {x: 0, y: 0, z: 0}
--- !u!1 &1253676469
GameObject:
  m_ObjectHideFlags: 0
  m_PrefabParentObject: {fileID: 189286, guid: 16dc4b51d7b30f74a9fd33417596daa7, type: 2}
  m_PrefabInternal: {fileID: 1782911851}
  serializedVersion: 5
  m_Component:
  - component: {fileID: 1253676470}
  - component: {fileID: 1253676473}
  - component: {fileID: 1253676472}
  - component: {fileID: 1253676471}
  m_Layer: 0
  m_Name: GUI Camera
  m_TagString: Untagged
  m_Icon: {fileID: 0}
  m_NavMeshLayer: 0
  m_StaticEditorFlags: 0
  m_IsActive: 1
--- !u!4 &1253676470
Transform:
  m_ObjectHideFlags: 0
  m_PrefabParentObject: {fileID: 489286, guid: 16dc4b51d7b30f74a9fd33417596daa7, type: 2}
  m_PrefabInternal: {fileID: 1782911851}
  m_GameObject: {fileID: 1253676469}
  m_LocalRotation: {x: 0, y: 0, z: 0, w: 1}
  m_LocalPosition: {x: 0, y: 0, z: 0}
  m_LocalScale: {x: 1, y: 1, z: 1}
  m_Children:
  - {fileID: 1393291931}
  m_Father: {fileID: 209276490}
  m_RootOrder: 0
  m_LocalEulerAnglesHint: {x: 0, y: 0, z: 0}
--- !u!124 &1253676471
Behaviour:
  m_ObjectHideFlags: 0
  m_PrefabParentObject: {fileID: 12489286, guid: 16dc4b51d7b30f74a9fd33417596daa7,
    type: 2}
  m_PrefabInternal: {fileID: 1782911851}
  m_GameObject: {fileID: 1253676469}
  m_Enabled: 1
--- !u!92 &1253676472
Behaviour:
  m_ObjectHideFlags: 0
  m_PrefabParentObject: {fileID: 9289286, guid: 16dc4b51d7b30f74a9fd33417596daa7,
    type: 2}
  m_PrefabInternal: {fileID: 1782911851}
  m_GameObject: {fileID: 1253676469}
  m_Enabled: 1
--- !u!20 &1253676473
Camera:
  m_ObjectHideFlags: 0
  m_PrefabParentObject: {fileID: 2089286, guid: 16dc4b51d7b30f74a9fd33417596daa7,
    type: 2}
  m_PrefabInternal: {fileID: 1782911851}
  m_GameObject: {fileID: 1253676469}
  m_Enabled: 1
  serializedVersion: 2
  m_ClearFlags: 3
  m_BackGroundColor: {r: 0.22745098, g: 0.22352941, b: 0.22745098, a: 0.019607844}
  m_NormalizedViewPortRect:
    serializedVersion: 2
    x: 0
    y: 0
    width: 1
    height: 1
  near clip plane: 0.3
  far clip plane: 1000
  field of view: 60
  orthographic: 0
  orthographic size: 5
  m_Depth: 0
  m_CullingMask:
    serializedVersion: 2
    m_Bits: 2
  m_RenderingPath: -1
  m_TargetTexture: {fileID: 0}
  m_TargetDisplay: 0
  m_TargetEye: 3
  m_HDR: 1
  m_AllowMSAA: 1
  m_ForceIntoRT: 0
  m_OcclusionCulling: 1
  m_StereoConvergence: 10
  m_StereoSeparation: 0.022
  m_StereoMirrorMode: 0
--- !u!1 &1271043109
GameObject:
  m_ObjectHideFlags: 0
  m_PrefabParentObject: {fileID: 186044, guid: 03195f095903a914192b43fe5bb968e1, type: 2}
  m_PrefabInternal: {fileID: 1050795357}
  serializedVersion: 5
  m_Component:
  - component: {fileID: 1271043110}
  m_Layer: 0
  m_Name: Root
  m_TagString: Untagged
  m_Icon: {fileID: 0}
  m_NavMeshLayer: 0
  m_StaticEditorFlags: 0
  m_IsActive: 1
--- !u!4 &1271043110
Transform:
  m_ObjectHideFlags: 0
  m_PrefabParentObject: {fileID: 486044, guid: 03195f095903a914192b43fe5bb968e1, type: 2}
  m_PrefabInternal: {fileID: 1050795357}
  m_GameObject: {fileID: 1271043109}
  m_LocalRotation: {x: -0.5, y: 0.5, z: 0.5, w: 0.5}
  m_LocalPosition: {x: 0, y: 2.061, z: -0.112}
  m_LocalScale: {x: 1, y: 1, z: 1}
  m_Children:
  - {fileID: 2018931442}
  m_Father: {fileID: 1612309661}
  m_RootOrder: 1
  m_LocalEulerAnglesHint: {x: 0, y: 0, z: 0}
--- !u!1 &1280464189
GameObject:
  m_ObjectHideFlags: 0
  m_PrefabParentObject: {fileID: 159906, guid: 03195f095903a914192b43fe5bb968e1, type: 2}
  m_PrefabInternal: {fileID: 1050795357}
  serializedVersion: 5
  m_Component:
  - component: {fileID: 1280464190}
  m_Layer: 0
  m_Name: B_R_Finger21
  m_TagString: Untagged
  m_Icon: {fileID: 0}
  m_NavMeshLayer: 0
  m_StaticEditorFlags: 0
  m_IsActive: 1
--- !u!4 &1280464190
Transform:
  m_ObjectHideFlags: 0
  m_PrefabParentObject: {fileID: 459906, guid: 03195f095903a914192b43fe5bb968e1, type: 2}
  m_PrefabInternal: {fileID: 1050795357}
  m_GameObject: {fileID: 1280464189}
  m_LocalRotation: {x: -0.00000001491465, y: 0.00000007676373, z: -0.116402075, w: 0.9932022}
  m_LocalPosition: {x: -0.08599235, y: -0.00000019073485, z: -0.00000029563904}
  m_LocalScale: {x: 1, y: 1.0000004, z: 1.0000002}
  m_Children:
  - {fileID: 846058870}
  m_Father: {fileID: 863879248}
  m_RootOrder: 0
  m_LocalEulerAnglesHint: {x: 0, y: 0, z: 0}
--- !u!1 &1343890178
GameObject:
  m_ObjectHideFlags: 0
  m_PrefabParentObject: {fileID: 159892, guid: 03195f095903a914192b43fe5bb968e1, type: 2}
  m_PrefabInternal: {fileID: 1050795357}
  serializedVersion: 5
  m_Component:
  - component: {fileID: 1343890179}
  m_Layer: 0
  m_Name: B_R_Hand
  m_TagString: Untagged
  m_Icon: {fileID: 0}
  m_NavMeshLayer: 0
  m_StaticEditorFlags: 0
  m_IsActive: 1
--- !u!4 &1343890179
Transform:
  m_ObjectHideFlags: 0
  m_PrefabParentObject: {fileID: 459890, guid: 03195f095903a914192b43fe5bb968e1, type: 2}
  m_PrefabInternal: {fileID: 1050795357}
  m_GameObject: {fileID: 1343890178}
  m_LocalRotation: {x: 0.70682514, y: 0.00000008163955, z: 0.000000050081884, w: 0.70738834}
  m_LocalPosition: {x: -0.2544748, y: -0.0000000667572, z: -0.00000030517577}
  m_LocalScale: {x: 1.0000004, y: 0.99999994, z: 1.0000002}
  m_Children:
  - {fileID: 53217428}
  - {fileID: 1469095611}
  - {fileID: 863879248}
  - {fileID: 1151619612}
  - {fileID: 960098523}
  m_Father: {fileID: 1219345670}
  m_RootOrder: 0
  m_LocalEulerAnglesHint: {x: 0, y: 0, z: 0}
--- !u!1 &1393291929
GameObject:
  m_ObjectHideFlags: 0
  m_PrefabParentObject: {fileID: 189282, guid: 16dc4b51d7b30f74a9fd33417596daa7, type: 2}
  m_PrefabInternal: {fileID: 1782911851}
  serializedVersion: 5
  m_Component:
  - component: {fileID: 1393291931}
  - component: {fileID: 1393291930}
  m_Layer: 1
  m_Name: Controls
  m_TagString: Untagged
  m_Icon: {fileID: 0}
  m_NavMeshLayer: 0
  m_StaticEditorFlags: 0
  m_IsActive: 1
--- !u!212 &1393291930
SpriteRenderer:
  m_ObjectHideFlags: 0
  m_PrefabParentObject: {fileID: 21289286, guid: 16dc4b51d7b30f74a9fd33417596daa7,
    type: 2}
  m_PrefabInternal: {fileID: 1782911851}
  m_GameObject: {fileID: 1393291929}
  m_Enabled: 1
  m_CastShadows: 0
  m_ReceiveShadows: 0
  m_MotionVectors: 1
  m_LightProbeUsage: 0
  m_ReflectionProbeUsage: 1
  m_Materials:
  - {fileID: 10754, guid: 0000000000000000f000000000000000, type: 0}
  m_StaticBatchInfo:
    firstSubMesh: 0
    subMeshCount: 0
  m_StaticBatchRoot: {fileID: 0}
  m_ProbeAnchor: {fileID: 0}
  m_LightProbeVolumeOverride: {fileID: 0}
  m_ScaleInLightmap: 1
  m_PreserveUVs: 0
  m_IgnoreNormalsForChartDetection: 0
  m_ImportantGI: 0
  m_SelectedEditorRenderState: 0
  m_MinimumChartSize: 4
  m_AutoUVMaxDistance: 0.5
  m_AutoUVMaxAngle: 89
  m_LightmapParameters: {fileID: 0}
  m_SortingLayerID: 0
  m_SortingLayer: 0
  m_SortingOrder: 0
  m_Sprite: {fileID: 21300000, guid: 19663e3fea6f609468d37dbdcd231930, type: 3}
  m_Color: {r: 1, g: 1, b: 1, a: 1}
  m_FlipX: 0
  m_FlipY: 0
  m_DrawMode: 0
  m_Size: {x: 1, y: 1}
  m_AdaptiveModeThreshold: 0.5
  m_SpriteTileMode: 0
  m_WasSpriteAssigned: 1
  m_MaskInteraction: 0
--- !u!4 &1393291931
Transform:
  m_ObjectHideFlags: 0
  m_PrefabParentObject: {fileID: 489282, guid: 16dc4b51d7b30f74a9fd33417596daa7, type: 2}
  m_PrefabInternal: {fileID: 1782911851}
  m_GameObject: {fileID: 1393291929}
  m_LocalRotation: {x: -0.00000006415836, y: -0.000000073995004, z: -0.00000018427781,
    w: 1}
  m_LocalPosition: {x: 5.36, y: 2.73, z: 6.39}
  m_LocalScale: {x: 1, y: 1, z: 1}
  m_Children:
  - {fileID: 1594356999}
  - {fileID: 432706326}
  m_Father: {fileID: 1253676470}
  m_RootOrder: 0
  m_LocalEulerAnglesHint: {x: 0, y: 0, z: 0}
--- !u!1 &1402008008
GameObject:
  m_ObjectHideFlags: 0
  m_PrefabParentObject: {fileID: 159920, guid: 03195f095903a914192b43fe5bb968e1, type: 2}
  m_PrefabInternal: {fileID: 1050795357}
  serializedVersion: 5
  m_Component:
  - component: {fileID: 1402008009}
  m_Layer: 0
  m_Name: B_R_Finger42
  m_TagString: Untagged
  m_Icon: {fileID: 0}
  m_NavMeshLayer: 0
  m_StaticEditorFlags: 0
  m_IsActive: 1
--- !u!4 &1402008009
Transform:
  m_ObjectHideFlags: 0
  m_PrefabParentObject: {fileID: 459920, guid: 03195f095903a914192b43fe5bb968e1, type: 2}
  m_PrefabInternal: {fileID: 1050795357}
  m_GameObject: {fileID: 1402008008}
  m_LocalRotation: {x: 0.000000010694469, y: -0.000000068767555, z: -0.11640201, w: 0.9932022}
  m_LocalPosition: {x: -0.061423566, y: 0.000000095367426, z: -0.00000009059906}
  m_LocalScale: {x: 0.99999994, y: 1, z: 0.9999999}
  m_Children: []
  m_Father: {fileID: 1468851501}
  m_RootOrder: 0
  m_LocalEulerAnglesHint: {x: 0, y: 0, z: 0}
--- !u!1 &1402227525
GameObject:
  m_ObjectHideFlags: 0
  m_PrefabParentObject: {fileID: 186038, guid: 03195f095903a914192b43fe5bb968e1, type: 2}
  m_PrefabInternal: {fileID: 1050795357}
  serializedVersion: 5
  m_Component:
  - component: {fileID: 1402227526}
  - component: {fileID: 1402227528}
  - component: {fileID: 1402227527}
  m_Layer: 0
  m_Name: HairEnd
  m_TagString: Untagged
  m_Icon: {fileID: 0}
  m_NavMeshLayer: 0
  m_StaticEditorFlags: 0
  m_IsActive: 1
--- !u!4 &1402227526
Transform:
  m_ObjectHideFlags: 0
  m_PrefabParentObject: {fileID: 486038, guid: 03195f095903a914192b43fe5bb968e1, type: 2}
  m_PrefabInternal: {fileID: 1050795357}
  m_GameObject: {fileID: 1402227525}
  m_LocalRotation: {x: 0, y: 0, z: 0, w: 1}
  m_LocalPosition: {x: 0.243, y: 0, z: 0}
  m_LocalScale: {x: 1, y: 1, z: 1}
  m_Children: []
  m_Father: {fileID: 1426487488}
  m_RootOrder: 0
  m_LocalEulerAnglesHint: {x: 0, y: 0, z: 0}
--- !u!144 &1402227527
CharacterJoint:
  m_ObjectHideFlags: 0
  m_PrefabParentObject: {fileID: 14486044, guid: 03195f095903a914192b43fe5bb968e1,
    type: 2}
  m_PrefabInternal: {fileID: 1050795357}
  m_GameObject: {fileID: 1402227525}
  m_ConnectedBody: {fileID: 1426487489}
  m_Anchor: {x: 0, y: 0, z: 0}
  m_Axis: {x: 0, y: 1, z: 0}
  m_AutoConfigureConnectedAnchor: 1
  m_ConnectedAnchor: {x: 0.243, y: -0.00000003473579, z: -0.00000023841858}
  serializedVersion: 2
  m_SwingAxis: {x: 0, y: 0, z: 1}
  m_TwistLimitSpring:
    spring: 0
    damper: 0
  m_LowTwistLimit:
    limit: -90
    bounciness: 0
    contactDistance: 0
  m_HighTwistLimit:
    limit: 90
    bounciness: 0
    contactDistance: 0
  m_SwingLimitSpring:
    spring: 0
    damper: 0
  m_Swing1Limit:
    limit: 90
    bounciness: 0
    contactDistance: 0
  m_Swing2Limit:
    limit: 0
    bounciness: 0
    contactDistance: 0
  m_EnableProjection: 0
  m_ProjectionDistance: 0.1
  m_ProjectionAngle: 180
  m_BreakForce: Infinity
  m_BreakTorque: Infinity
  m_EnableCollision: 0
  m_EnablePreprocessing: 1
  m_MassScale: 1
  m_ConnectedMassScale: 1
--- !u!54 &1402227528
Rigidbody:
  m_ObjectHideFlags: 0
  m_PrefabParentObject: {fileID: 5486042, guid: 03195f095903a914192b43fe5bb968e1,
    type: 2}
  m_PrefabInternal: {fileID: 1050795357}
  m_GameObject: {fileID: 1402227525}
  serializedVersion: 2
  m_Mass: 20
  m_Drag: 1
  m_AngularDrag: 1
  m_UseGravity: 1
  m_IsKinematic: 0
  m_Interpolate: 0
  m_Constraints: 0
  m_CollisionDetection: 1
--- !u!1 &1426487487
GameObject:
  m_ObjectHideFlags: 0
  m_PrefabParentObject: {fileID: 164016, guid: 03195f095903a914192b43fe5bb968e1, type: 2}
  m_PrefabInternal: {fileID: 1050795357}
  serializedVersion: 5
  m_Component:
  - component: {fileID: 1426487488}
  - component: {fileID: 1426487489}
  - component: {fileID: 1426487490}
  m_Layer: 0
  m_Name: Hair3
  m_TagString: Untagged
  m_Icon: {fileID: 0}
  m_NavMeshLayer: 0
  m_StaticEditorFlags: 0
  m_IsActive: 1
--- !u!4 &1426487488
Transform:
  m_ObjectHideFlags: 0
  m_PrefabParentObject: {fileID: 464016, guid: 03195f095903a914192b43fe5bb968e1, type: 2}
  m_PrefabInternal: {fileID: 1050795357}
  m_GameObject: {fileID: 1426487487}
  m_LocalRotation: {x: 0, y: -0, z: -0, w: 1}
  m_LocalPosition: {x: 0.27179077, y: 0.0000003445195, z: 0}
  m_LocalScale: {x: 1, y: 1, z: 1}
  m_Children:
  - {fileID: 1402227526}
  m_Father: {fileID: 404298546}
  m_RootOrder: 0
  m_LocalEulerAnglesHint: {x: 0, y: 0, z: 0}
--- !u!54 &1426487489
Rigidbody:
  m_ObjectHideFlags: 0
  m_PrefabParentObject: {fileID: 5464016, guid: 03195f095903a914192b43fe5bb968e1,
    type: 2}
  m_PrefabInternal: {fileID: 1050795357}
  m_GameObject: {fileID: 1426487487}
  serializedVersion: 2
  m_Mass: 12
  m_Drag: 1
  m_AngularDrag: 1
  m_UseGravity: 1
  m_IsKinematic: 0
  m_Interpolate: 0
  m_Constraints: 0
  m_CollisionDetection: 2
--- !u!144 &1426487490
CharacterJoint:
  m_ObjectHideFlags: 0
  m_PrefabParentObject: {fileID: 14464016, guid: 03195f095903a914192b43fe5bb968e1,
    type: 2}
  m_PrefabInternal: {fileID: 1050795357}
  m_GameObject: {fileID: 1426487487}
  m_ConnectedBody: {fileID: 404298547}
  m_Anchor: {x: 0, y: 0, z: 0}
  m_Axis: {x: 0, y: 1, z: 0}
  m_AutoConfigureConnectedAnchor: 1
  m_ConnectedAnchor: {x: 0.27179074, y: 0.0000003097837, z: -0.00000023841858}
  serializedVersion: 2
  m_SwingAxis: {x: 0, y: 0, z: 1}
  m_TwistLimitSpring:
    spring: 0
    damper: 0
  m_LowTwistLimit:
    limit: -80
    bounciness: 0
    contactDistance: 0
  m_HighTwistLimit:
    limit: 80
    bounciness: 0
    contactDistance: 0
  m_SwingLimitSpring:
    spring: 0
    damper: 0
  m_Swing1Limit:
    limit: 90
    bounciness: 0
    contactDistance: 0
  m_Swing2Limit:
    limit: 0
    bounciness: 0
    contactDistance: 0
  m_EnableProjection: 0
  m_ProjectionDistance: 0.1
  m_ProjectionAngle: 180
  m_BreakForce: Infinity
  m_BreakTorque: Infinity
  m_EnableCollision: 0
  m_EnablePreprocessing: 1
  m_MassScale: 1
  m_ConnectedMassScale: 1
--- !u!1 &1437563057
GameObject:
  m_ObjectHideFlags: 0
  m_PrefabParentObject: {fileID: 159818, guid: 03195f095903a914192b43fe5bb968e1, type: 2}
  m_PrefabInternal: {fileID: 1050795357}
  serializedVersion: 5
  m_Component:
  - component: {fileID: 1437563058}
  m_Layer: 0
  m_Name: B_R_Finger12
  m_TagString: Untagged
  m_Icon: {fileID: 0}
  m_NavMeshLayer: 0
  m_StaticEditorFlags: 0
  m_IsActive: 1
--- !u!4 &1437563058
Transform:
  m_ObjectHideFlags: 0
  m_PrefabParentObject: {fileID: 459902, guid: 03195f095903a914192b43fe5bb968e1, type: 2}
  m_PrefabInternal: {fileID: 1050795357}
  m_GameObject: {fileID: 1437563057}
  m_LocalRotation: {x: 0.00000002127347, y: -0.00000012251844, z: -0.11640208, w: 0.9932022}
  m_LocalPosition: {x: -0.07370773, y: -0.000000057220458, z: -0.000000114440915}
  m_LocalScale: {x: 1, y: 1.0000001, z: 0.99999976}
  m_Children: []
  m_Father: {fileID: 162912525}
  m_RootOrder: 0
  m_LocalEulerAnglesHint: {x: 0, y: 0, z: 0}
--- !u!1 &1455029596
GameObject:
  m_ObjectHideFlags: 0
  m_PrefabParentObject: {fileID: 159860, guid: 03195f095903a914192b43fe5bb968e1, type: 2}
  m_PrefabInternal: {fileID: 1050795357}
  serializedVersion: 5
  m_Component:
  - component: {fileID: 1455029597}
  m_Layer: 0
  m_Name: B_L_Finger11
  m_TagString: Untagged
  m_Icon: {fileID: 0}
  m_NavMeshLayer: 0
  m_StaticEditorFlags: 0
  m_IsActive: 1
--- !u!4 &1455029597
Transform:
  m_ObjectHideFlags: 0
  m_PrefabParentObject: {fileID: 459868, guid: 03195f095903a914192b43fe5bb968e1, type: 2}
  m_PrefabInternal: {fileID: 1050795357}
  m_GameObject: {fileID: 1455029596}
  m_LocalRotation: {x: 0.00000003037975, y: -0.000000044819146, z: -0.11640206, w: 0.9932022}
  m_LocalPosition: {x: -0.073707886, y: -0.000000038146972, z: 0.00000017166137}
  m_LocalScale: {x: 0.9999997, y: 0.9999997, z: 1}
  m_Children:
  - {fileID: 491974278}
  m_Father: {fileID: 1851103638}
  m_RootOrder: 0
  m_LocalEulerAnglesHint: {x: 0, y: 0, z: 0}
--- !u!1 &1468851500
GameObject:
  m_ObjectHideFlags: 0
  m_PrefabParentObject: {fileID: 159918, guid: 03195f095903a914192b43fe5bb968e1, type: 2}
  m_PrefabInternal: {fileID: 1050795357}
  serializedVersion: 5
  m_Component:
  - component: {fileID: 1468851501}
  m_Layer: 0
  m_Name: B_R_Finger41
  m_TagString: Untagged
  m_Icon: {fileID: 0}
  m_NavMeshLayer: 0
  m_StaticEditorFlags: 0
  m_IsActive: 1
--- !u!4 &1468851501
Transform:
  m_ObjectHideFlags: 0
  m_PrefabParentObject: {fileID: 459918, guid: 03195f095903a914192b43fe5bb968e1, type: 2}
  m_PrefabInternal: {fileID: 1050795357}
  m_GameObject: {fileID: 1468851500}
  m_LocalRotation: {x: -0.000000037203037, y: -0.00000008940951, z: -0.11640201, w: 0.9932022}
  m_LocalPosition: {x: -0.061422653, y: 0.00000015258789, z: 0.00000031948088}
  m_LocalScale: {x: 1.0000004, y: 1, z: 1.0000002}
  m_Children:
  - {fileID: 1402008009}
  m_Father: {fileID: 960098523}
  m_RootOrder: 0
  m_LocalEulerAnglesHint: {x: 0, y: 0, z: 0}
--- !u!1 &1469095610
GameObject:
  m_ObjectHideFlags: 0
  m_PrefabParentObject: {fileID: 159900, guid: 03195f095903a914192b43fe5bb968e1, type: 2}
  m_PrefabInternal: {fileID: 1050795357}
  serializedVersion: 5
  m_Component:
  - component: {fileID: 1469095611}
  m_Layer: 0
  m_Name: B_R_Finger1
  m_TagString: Untagged
  m_Icon: {fileID: 0}
  m_NavMeshLayer: 0
  m_StaticEditorFlags: 0
  m_IsActive: 1
--- !u!4 &1469095611
Transform:
  m_ObjectHideFlags: 0
  m_PrefabParentObject: {fileID: 459898, guid: 03195f095903a914192b43fe5bb968e1, type: 2}
  m_PrefabInternal: {fileID: 1050795357}
  m_GameObject: {fileID: 1469095610}
  m_LocalRotation: {x: 0.000398138, y: -0.000000067071554, z: -0.0000000409515, w: 0.99999994}
  m_LocalPosition: {x: -0.17157653, y: -0.034993093, z: 0.059923057}
  m_LocalScale: {x: 0.99999976, y: 1.0000002, z: 1.0000001}
  m_Children:
  - {fileID: 162912525}
  m_Father: {fileID: 1343890179}
  m_RootOrder: 1
  m_LocalEulerAnglesHint: {x: 0, y: 0, z: 0}
--- !u!1 &1508426079
GameObject:
  m_ObjectHideFlags: 0
  m_PrefabParentObject: {fileID: 159852, guid: 03195f095903a914192b43fe5bb968e1, type: 2}
  m_PrefabInternal: {fileID: 1050795357}
  serializedVersion: 5
  m_Component:
  - component: {fileID: 1508426080}
  m_Layer: 0
  m_Name: B_L_Finger0
  m_TagString: Untagged
  m_Icon: {fileID: 0}
  m_NavMeshLayer: 0
  m_StaticEditorFlags: 0
  m_IsActive: 1
--- !u!4 &1508426080
Transform:
  m_ObjectHideFlags: 0
  m_PrefabParentObject: {fileID: 459860, guid: 03195f095903a914192b43fe5bb968e1, type: 2}
  m_PrefabInternal: {fileID: 1050795357}
  m_GameObject: {fileID: 1508426079}
  m_LocalRotation: {x: 0.44854182, y: -0.13317716, z: -0.06779064, w: 0.8811802}
  m_LocalPosition: {x: -0.09849678, y: -0.002053566, z: -0.10302402}
  m_LocalScale: {x: 1.0000005, y: 0.99999976, z: 1}
  m_Children:
  - {fileID: 1084397323}
  m_Father: {fileID: 464745159}
  m_RootOrder: 0
  m_LocalEulerAnglesHint: {x: 0, y: 0, z: 0}
--- !u!1 &1519161264
GameObject:
  m_ObjectHideFlags: 0
  m_PrefabParentObject: {fileID: 159888, guid: 03195f095903a914192b43fe5bb968e1, type: 2}
  m_PrefabInternal: {fileID: 1050795357}
  serializedVersion: 5
  m_Component:
  - component: {fileID: 1519161265}
  m_Layer: 0
  m_Name: B_R_UpperArm
  m_TagString: Untagged
  m_Icon: {fileID: 0}
  m_NavMeshLayer: 0
  m_StaticEditorFlags: 0
  m_IsActive: 1
--- !u!4 &1519161265
Transform:
  m_ObjectHideFlags: 0
  m_PrefabParentObject: {fileID: 459842, guid: 03195f095903a914192b43fe5bb968e1, type: 2}
  m_PrefabInternal: {fileID: 1050795357}
  m_GameObject: {fileID: 1519161264}
  m_LocalRotation: {x: -0.037064075, y: 0.6700438, z: -0.033529013, w: 0.7406371}
  m_LocalPosition: {x: -0.1947296, y: 0.0000001230836, z: -0.00000015258789}
  m_LocalScale: {x: 0.9999998, y: 1.0000001, z: 0.9999997}
  m_Children:
  - {fileID: 1219345670}
  m_Father: {fileID: 965176547}
  m_RootOrder: 0
  m_LocalEulerAnglesHint: {x: 0, y: 0, z: 0}
--- !u!1 &1529274231
GameObject:
  m_ObjectHideFlags: 0
  m_PrefabParentObject: {fileID: 0}
  m_PrefabInternal: {fileID: 0}
  serializedVersion: 5
  m_Component:
  - component: {fileID: 1529274235}
  - component: {fileID: 1529274234}
  - component: {fileID: 1529274232}
  m_Layer: 0
  m_Name: Grid
  m_TagString: Untagged
  m_Icon: {fileID: 0}
  m_NavMeshLayer: 0
  m_StaticEditorFlags: 0
  m_IsActive: 1
--- !u!23 &1529274232
MeshRenderer:
  m_ObjectHideFlags: 0
  m_PrefabParentObject: {fileID: 0}
  m_PrefabInternal: {fileID: 0}
  m_GameObject: {fileID: 1529274231}
  m_Enabled: 1
  m_CastShadows: 1
  m_ReceiveShadows: 1
  m_MotionVectors: 1
  m_LightProbeUsage: 0
  m_ReflectionProbeUsage: 1
  m_Materials:
  - {fileID: 2100000, guid: 68b1fdfa59a408c4e912b4f523135bec, type: 2}
  m_StaticBatchInfo:
    firstSubMesh: 0
    subMeshCount: 0
  m_StaticBatchRoot: {fileID: 0}
  m_ProbeAnchor: {fileID: 0}
  m_LightProbeVolumeOverride: {fileID: 0}
  m_ScaleInLightmap: 1
  m_PreserveUVs: 0
  m_IgnoreNormalsForChartDetection: 0
  m_ImportantGI: 0
  m_SelectedEditorRenderState: 3
  m_MinimumChartSize: 4
  m_AutoUVMaxDistance: 0.5
  m_AutoUVMaxAngle: 89
  m_LightmapParameters: {fileID: 0}
  m_SortingLayerID: 0
  m_SortingLayer: 0
  m_SortingOrder: 0
--- !u!33 &1529274234
MeshFilter:
  m_ObjectHideFlags: 0
  m_PrefabParentObject: {fileID: 0}
  m_PrefabInternal: {fileID: 0}
  m_GameObject: {fileID: 1529274231}
  m_Mesh: {fileID: 10210, guid: 0000000000000000e000000000000000, type: 0}
--- !u!4 &1529274235
Transform:
  m_ObjectHideFlags: 0
  m_PrefabParentObject: {fileID: 0}
  m_PrefabInternal: {fileID: 0}
  m_GameObject: {fileID: 1529274231}
  m_LocalRotation: {x: 0.7071068, y: 0, z: 0, w: 0.7071068}
  m_LocalPosition: {x: 0, y: 0, z: 0}
  m_LocalScale: {x: 50, y: 50, z: 50}
  m_Children: []
  m_Father: {fileID: 0}
  m_RootOrder: 3
  m_LocalEulerAnglesHint: {x: 0, y: 0, z: 0}
--- !u!1 &1594356998
GameObject:
  m_ObjectHideFlags: 0
  m_PrefabParentObject: {fileID: 185252, guid: 16dc4b51d7b30f74a9fd33417596daa7, type: 2}
  m_PrefabInternal: {fileID: 1782911851}
  serializedVersion: 5
  m_Component:
  - component: {fileID: 1594356999}
  - component: {fileID: 1594357000}
  m_Layer: 1
  m_Name: Controller
  m_TagString: Untagged
  m_Icon: {fileID: 0}
  m_NavMeshLayer: 0
  m_StaticEditorFlags: 0
  m_IsActive: 1
--- !u!4 &1594356999
Transform:
  m_ObjectHideFlags: 0
  m_PrefabParentObject: {fileID: 485252, guid: 16dc4b51d7b30f74a9fd33417596daa7, type: 2}
  m_PrefabInternal: {fileID: 1782911851}
  m_GameObject: {fileID: 1594356998}
  m_LocalRotation: {x: 0, y: 0, z: 0, w: 1}
  m_LocalPosition: {x: -9.9, y: -5.19, z: 0}
  m_LocalScale: {x: 1, y: 1, z: 1}
  m_Children: []
  m_Father: {fileID: 1393291931}
  m_RootOrder: 0
  m_LocalEulerAnglesHint: {x: 0, y: 0, z: 0}
--- !u!212 &1594357000
SpriteRenderer:
  m_ObjectHideFlags: 0
  m_PrefabParentObject: {fileID: 21285252, guid: 16dc4b51d7b30f74a9fd33417596daa7,
    type: 2}
  m_PrefabInternal: {fileID: 1782911851}
  m_GameObject: {fileID: 1594356998}
  m_Enabled: 1
  m_CastShadows: 0
  m_ReceiveShadows: 0
  m_MotionVectors: 1
  m_LightProbeUsage: 0
  m_ReflectionProbeUsage: 1
  m_Materials:
  - {fileID: 10754, guid: 0000000000000000f000000000000000, type: 0}
  m_StaticBatchInfo:
    firstSubMesh: 0
    subMeshCount: 0
  m_StaticBatchRoot: {fileID: 0}
  m_ProbeAnchor: {fileID: 0}
  m_LightProbeVolumeOverride: {fileID: 0}
  m_ScaleInLightmap: 1
  m_PreserveUVs: 0
  m_IgnoreNormalsForChartDetection: 0
  m_ImportantGI: 0
  m_SelectedEditorRenderState: 0
  m_MinimumChartSize: 4
  m_AutoUVMaxDistance: 0.5
  m_AutoUVMaxAngle: 89
  m_LightmapParameters: {fileID: 0}
  m_SortingLayerID: 0
  m_SortingLayer: 0
  m_SortingOrder: 0
  m_Sprite: {fileID: 21300000, guid: a89b87919aade4c498f4e0df342ab278, type: 3}
  m_Color: {r: 1, g: 1, b: 1, a: 1}
  m_FlipX: 0
  m_FlipY: 0
  m_DrawMode: 0
  m_Size: {x: 1, y: 1}
  m_AdaptiveModeThreshold: 0.5
  m_SpriteTileMode: 0
  m_WasSpriteAssigned: 1
  m_MaskInteraction: 0
--- !u!1 &1612309660
GameObject:
  m_ObjectHideFlags: 0
  m_PrefabParentObject: {fileID: 186048, guid: 03195f095903a914192b43fe5bb968e1, type: 2}
  m_PrefabInternal: {fileID: 1050795357}
  serializedVersion: 5
  m_Component:
  - component: {fileID: 1612309661}
  m_Layer: 0
  m_Name: Sorceress-Hair
  m_TagString: Untagged
  m_Icon: {fileID: 0}
  m_NavMeshLayer: 0
  m_StaticEditorFlags: 0
  m_IsActive: 1
--- !u!4 &1612309661
Transform:
  m_ObjectHideFlags: 0
  m_PrefabParentObject: {fileID: 486048, guid: 03195f095903a914192b43fe5bb968e1, type: 2}
  m_PrefabInternal: {fileID: 1050795357}
  m_GameObject: {fileID: 1612309660}
  m_LocalRotation: {x: 0, y: 0, z: 0, w: 1}
  m_LocalPosition: {x: 0, y: 0.10696542, z: 0}
  m_LocalScale: {x: 1, y: 1, z: 1}
  m_Children:
  - {fileID: 465354485}
  - {fileID: 1271043110}
  m_Father: {fileID: 683289462}
  m_RootOrder: 2
  m_LocalEulerAnglesHint: {x: 0, y: 0, z: 0}
--- !u!1 &1613530768
GameObject:
  m_ObjectHideFlags: 0
  m_PrefabParentObject: {fileID: 159824, guid: 03195f095903a914192b43fe5bb968e1, type: 2}
  m_PrefabInternal: {fileID: 1050795357}
  serializedVersion: 5
  m_Component:
  - component: {fileID: 1613530769}
  m_Layer: 0
  m_Name: B_L_Thigh
  m_TagString: Untagged
  m_Icon: {fileID: 0}
  m_NavMeshLayer: 0
  m_StaticEditorFlags: 0
  m_IsActive: 1
--- !u!4 &1613530769
Transform:
  m_ObjectHideFlags: 0
  m_PrefabParentObject: {fileID: 459820, guid: 03195f095903a914192b43fe5bb968e1, type: 2}
  m_PrefabInternal: {fileID: 1050795357}
  m_GameObject: {fileID: 1613530768}
  m_LocalRotation: {x: -0.04997973, y: 0.99875027, z: -0.000004234586, w: 0.00000012082359}
  m_LocalPosition: {x: -0, y: 0.00000020176172, z: 0.1043393}
  m_LocalScale: {x: 0.9999999, y: 1, z: 1}
  m_Children:
  - {fileID: 584631586}
  m_Father: {fileID: 616127556}
  m_RootOrder: 0
  m_LocalEulerAnglesHint: {x: 0, y: 0, z: 0}
--- !u!1 &1640909868
GameObject:
  m_ObjectHideFlags: 0
  m_PrefabParentObject: {fileID: 159828, guid: 03195f095903a914192b43fe5bb968e1, type: 2}
  m_PrefabInternal: {fileID: 1050795357}
  serializedVersion: 5
  m_Component:
  - component: {fileID: 1640909869}
  m_Layer: 0
  m_Name: B_L_Foot
  m_TagString: Untagged
  m_Icon: {fileID: 0}
  m_NavMeshLayer: 0
  m_StaticEditorFlags: 0
  m_IsActive: 1
--- !u!4 &1640909869
Transform:
  m_ObjectHideFlags: 0
  m_PrefabParentObject: {fileID: 459830, guid: 03195f095903a914192b43fe5bb968e1, type: 2}
  m_PrefabInternal: {fileID: 1050795357}
  m_GameObject: {fileID: 1640909868}
  m_LocalRotation: {x: 0.00000047264385, y: -0.000000048054105, z: -0.049979202, w: 0.99875027}
  m_LocalPosition: {x: -0.5595047, y: -0.000000014305114, z: -0.000000028610229}
  m_LocalScale: {x: 0.9999998, y: 0.9999997, z: 1}
  m_Children:
  - {fileID: 951029714}
  m_Father: {fileID: 584631586}
  m_RootOrder: 0
  m_LocalEulerAnglesHint: {x: 0, y: 0, z: 0}
--- !u!1 &1740568339
GameObject:
  m_ObjectHideFlags: 0
  m_PrefabParentObject: {fileID: 159816, guid: 03195f095903a914192b43fe5bb968e1, type: 2}
  m_PrefabInternal: {fileID: 1050795357}
  serializedVersion: 5
  m_Component:
  - component: {fileID: 1740568340}
  m_Layer: 0
  m_Name: Motion
  m_TagString: Untagged
  m_Icon: {fileID: 0}
  m_NavMeshLayer: 0
  m_StaticEditorFlags: 0
  m_IsActive: 1
--- !u!4 &1740568340
Transform:
  m_ObjectHideFlags: 0
  m_PrefabParentObject: {fileID: 459818, guid: 03195f095903a914192b43fe5bb968e1, type: 2}
  m_PrefabInternal: {fileID: 1050795357}
  m_GameObject: {fileID: 1740568339}
  m_LocalRotation: {x: -0.5, y: 0.5, z: 0.5, w: 0.5}
  m_LocalPosition: {x: -0.0000000099258495, y: 0, z: -0.0017328988}
  m_LocalScale: {x: 1, y: 1, z: 1}
  m_Children:
  - {fileID: 616127556}
  m_Father: {fileID: 683289462}
  m_RootOrder: 1
  m_LocalEulerAnglesHint: {x: 0, y: 0, z: 0}
--- !u!1 &1766276404
GameObject:
  m_ObjectHideFlags: 0
  m_PrefabParentObject: {fileID: 159844, guid: 03195f095903a914192b43fe5bb968e1, type: 2}
  m_PrefabInternal: {fileID: 1050795357}
  serializedVersion: 5
  m_Component:
  - component: {fileID: 1766276405}
  - component: {fileID: 1766276407}
  - component: {fileID: 1766276406}
  m_Layer: 0
  m_Name: B_L_Clavicle
  m_TagString: Untagged
  m_Icon: {fileID: 0}
  m_NavMeshLayer: 0
  m_StaticEditorFlags: 0
  m_IsActive: 1
--- !u!4 &1766276405
Transform:
  m_ObjectHideFlags: 0
  m_PrefabParentObject: {fileID: 459850, guid: 03195f095903a914192b43fe5bb968e1, type: 2}
  m_PrefabInternal: {fileID: 1050795357}
  m_GameObject: {fileID: 1766276404}
  m_LocalRotation: {x: 0.70710677, y: 0.00028154097, z: -0.70710677, w: 0.00028154097}
  m_LocalPosition: {x: -0.29094252, y: -0.00000010475516, z: 0.057713848}
  m_LocalScale: {x: 1, y: 1, z: 1}
  m_Children:
  - {fileID: 1983572118}
  m_Father: {fileID: 1776437145}
  m_RootOrder: 0
  m_LocalEulerAnglesHint: {x: 0, y: 0, z: 0}
--- !u!54 &1766276406
Rigidbody:
  m_ObjectHideFlags: 0
  m_PrefabParentObject: {fileID: 5407766, guid: 03195f095903a914192b43fe5bb968e1,
    type: 2}
  m_PrefabInternal: {fileID: 1050795357}
  m_GameObject: {fileID: 1766276404}
  serializedVersion: 2
  m_Mass: 1
  m_Drag: 0
  m_AngularDrag: 0.05
  m_UseGravity: 0
  m_IsKinematic: 1
  m_Interpolate: 0
  m_Constraints: 0
  m_CollisionDetection: 1
--- !u!136 &1766276407
CapsuleCollider:
  m_ObjectHideFlags: 0
  m_PrefabParentObject: {fileID: 13607772, guid: 03195f095903a914192b43fe5bb968e1,
    type: 2}
  m_PrefabInternal: {fileID: 1050795357}
  m_GameObject: {fileID: 1766276404}
  m_Material: {fileID: 0}
  m_IsTrigger: 0
  m_Enabled: 1
  m_Radius: 0.07
  m_Height: 0.31863785
  m_Direction: 0
  m_Center: {x: -0.21, y: 0, z: -0.03}
--- !u!1 &1776437144
GameObject:
  m_ObjectHideFlags: 0
  m_PrefabParentObject: {fileID: 159842, guid: 03195f095903a914192b43fe5bb968e1, type: 2}
  m_PrefabInternal: {fileID: 1050795357}
  serializedVersion: 5
  m_Component:
  - component: {fileID: 1776437145}
  m_Layer: 0
  m_Name: B_Spine1
  m_TagString: Untagged
  m_Icon: {fileID: 0}
  m_NavMeshLayer: 0
  m_StaticEditorFlags: 0
  m_IsActive: 1
--- !u!4 &1776437145
Transform:
  m_ObjectHideFlags: 0
  m_PrefabParentObject: {fileID: 459840, guid: 03195f095903a914192b43fe5bb968e1, type: 2}
  m_PrefabInternal: {fileID: 1050795357}
  m_GameObject: {fileID: 1776437144}
  m_LocalRotation: {x: -5.641104e-15, y: 0, z: -0, w: 1}
  m_LocalPosition: {x: -0.2152304, y: -0.00023167043, z: -4.216225e-10}
  m_LocalScale: {x: 1, y: 1, z: 1}
  m_Children:
  - {fileID: 1766276405}
  - {fileID: 1780328372}
  - {fileID: 965176547}
  m_Father: {fileID: 931519445}
  m_RootOrder: 0
  m_LocalEulerAnglesHint: {x: 0, y: 0, z: 0}
--- !u!1 &1780328371
GameObject:
  m_ObjectHideFlags: 0
  m_PrefabParentObject: {fileID: 159882, guid: 03195f095903a914192b43fe5bb968e1, type: 2}
  m_PrefabInternal: {fileID: 1050795357}
  serializedVersion: 5
  m_Component:
  - component: {fileID: 1780328372}
  m_Layer: 0
  m_Name: B_Neck
  m_TagString: Untagged
  m_Icon: {fileID: 0}
  m_NavMeshLayer: 0
  m_StaticEditorFlags: 0
  m_IsActive: 1
--- !u!4 &1780328372
Transform:
  m_ObjectHideFlags: 0
  m_PrefabParentObject: {fileID: 459846, guid: 03195f095903a914192b43fe5bb968e1, type: 2}
  m_PrefabInternal: {fileID: 1050795357}
  m_GameObject: {fileID: 1780328371}
  m_LocalRotation: {x: -0.0000004768159, y: -3.910935e-14, z: -0.00000008213101, w: 1}
  m_LocalPosition: {x: -0.29094252, y: -0.00010208949, z: -1.857954e-10}
  m_LocalScale: {x: 1, y: 1, z: 1}
  m_Children:
  - {fileID: 166314207}
  m_Father: {fileID: 1776437145}
  m_RootOrder: 1
  m_LocalEulerAnglesHint: {x: 0, y: 0, z: 0}
--- !u!1001 &1782911851
Prefab:
  m_ObjectHideFlags: 0
  serializedVersion: 2
  m_Modification:
    m_TransformParent: {fileID: 0}
    m_Modifications:
    - target: {fileID: 489288, guid: 16dc4b51d7b30f74a9fd33417596daa7, type: 2}
      propertyPath: m_LocalPosition.x
      value: 2.61999989
      objectReference: {fileID: 0}
    - target: {fileID: 489288, guid: 16dc4b51d7b30f74a9fd33417596daa7, type: 2}
      propertyPath: m_LocalPosition.y
      value: 6.71999979
      objectReference: {fileID: 0}
    - target: {fileID: 489288, guid: 16dc4b51d7b30f74a9fd33417596daa7, type: 2}
      propertyPath: m_LocalPosition.z
      value: -8
      objectReference: {fileID: 0}
    - target: {fileID: 489288, guid: 16dc4b51d7b30f74a9fd33417596daa7, type: 2}
      propertyPath: m_LocalRotation.x
      value: -.382683486
      objectReference: {fileID: 0}
    - target: {fileID: 489288, guid: 16dc4b51d7b30f74a9fd33417596daa7, type: 2}
      propertyPath: m_LocalRotation.y
      value: 1.00611396e-06
      objectReference: {fileID: 0}
    - target: {fileID: 489288, guid: 16dc4b51d7b30f74a9fd33417596daa7, type: 2}
      propertyPath: m_LocalRotation.z
      value: -3.96346337e-07
      objectReference: {fileID: 0}
    - target: {fileID: 489288, guid: 16dc4b51d7b30f74a9fd33417596daa7, type: 2}
      propertyPath: m_LocalRotation.w
      value: -.923879564
      objectReference: {fileID: 0}
    - target: {fileID: 489288, guid: 16dc4b51d7b30f74a9fd33417596daa7, type: 2}
      propertyPath: m_RootOrder
      value: 1
      objectReference: {fileID: 0}
    - target: {fileID: 189288, guid: 16dc4b51d7b30f74a9fd33417596daa7, type: 2}
      propertyPath: m_Name
      value: Main Camera
      objectReference: {fileID: 0}
    - target: {fileID: 11481238, guid: 16dc4b51d7b30f74a9fd33417596daa7, type: 2}
      propertyPath: target
      value: 
      objectReference: {fileID: 683289462}
    - target: {fileID: 2089288, guid: 16dc4b51d7b30f74a9fd33417596daa7, type: 2}
      propertyPath: m_BackGroundColor.r
      value: .227450982
      objectReference: {fileID: 0}
    - target: {fileID: 2089288, guid: 16dc4b51d7b30f74a9fd33417596daa7, type: 2}
      propertyPath: m_BackGroundColor.g
      value: .223529413
      objectReference: {fileID: 0}
    - target: {fileID: 2089288, guid: 16dc4b51d7b30f74a9fd33417596daa7, type: 2}
      propertyPath: m_BackGroundColor.b
      value: .227450982
      objectReference: {fileID: 0}
    m_RemovedComponents: []
  m_ParentPrefab: {fileID: 100100000, guid: 16dc4b51d7b30f74a9fd33417596daa7, type: 2}
  m_RootGameObject: {fileID: 209276484}
  m_IsPrefabParent: 0
--- !u!1 &1851103637
GameObject:
  m_ObjectHideFlags: 0
  m_PrefabParentObject: {fileID: 159858, guid: 03195f095903a914192b43fe5bb968e1, type: 2}
  m_PrefabInternal: {fileID: 1050795357}
  serializedVersion: 5
  m_Component:
  - component: {fileID: 1851103638}
  m_Layer: 0
  m_Name: B_L_Finger1
  m_TagString: Untagged
  m_Icon: {fileID: 0}
  m_NavMeshLayer: 0
  m_StaticEditorFlags: 0
  m_IsActive: 1
--- !u!4 &1851103638
Transform:
  m_ObjectHideFlags: 0
  m_PrefabParentObject: {fileID: 459866, guid: 03195f095903a914192b43fe5bb968e1, type: 2}
  m_PrefabInternal: {fileID: 1050795357}
  m_GameObject: {fileID: 1851103637}
  m_LocalRotation: {x: -0.00039816316, y: 1.4832728e-12, z: -0.0000000037252887, w: 0.99999994}
  m_LocalPosition: {x: -0.1715763, y: -0.034993134, z: -0.059923057}
  m_LocalScale: {x: 1.0000004, y: 1.0000002, z: 0.99999976}
  m_Children:
  - {fileID: 1455029597}
  m_Father: {fileID: 464745159}
  m_RootOrder: 1
  m_LocalEulerAnglesHint: {x: 0, y: 0, z: 0}
--- !u!1 &1867289311
GameObject:
  m_ObjectHideFlags: 0
  m_PrefabParentObject: {fileID: 159838, guid: 03195f095903a914192b43fe5bb968e1, type: 2}
  m_PrefabInternal: {fileID: 1050795357}
  serializedVersion: 5
  m_Component:
  - component: {fileID: 1867289312}
  m_Layer: 0
  m_Name: B_R_Toe0
  m_TagString: Untagged
  m_Icon: {fileID: 0}
  m_NavMeshLayer: 0
  m_StaticEditorFlags: 0
  m_IsActive: 1
--- !u!4 &1867289312
Transform:
  m_ObjectHideFlags: 0
  m_PrefabParentObject: {fileID: 459838, guid: 03195f095903a914192b43fe5bb968e1, type: 2}
  m_PrefabInternal: {fileID: 1050795357}
  m_GameObject: {fileID: 1867289311}
  m_LocalRotation: {x: 0.000000017086556, y: -0.000000058143495, z: -0.7071068, w: 0.7071068}
  m_LocalPosition: {x: -0.17088115, y: 0.25053585, z: -0.000000009536743}
  m_LocalScale: {x: 1, y: 1, z: 1}
  m_Children: []
  m_Father: {fileID: 1063050389}
  m_RootOrder: 0
  m_LocalEulerAnglesHint: {x: 0, y: 0, z: 0}
--- !u!1 &1949396020
GameObject:
  m_ObjectHideFlags: 0
  m_PrefabParentObject: {fileID: 159912, guid: 03195f095903a914192b43fe5bb968e1, type: 2}
  m_PrefabInternal: {fileID: 1050795357}
  serializedVersion: 5
  m_Component:
  - component: {fileID: 1949396021}
  m_Layer: 0
  m_Name: B_R_Finger31
  m_TagString: Untagged
  m_Icon: {fileID: 0}
  m_NavMeshLayer: 0
  m_StaticEditorFlags: 0
  m_IsActive: 1
--- !u!4 &1949396021
Transform:
  m_ObjectHideFlags: 0
  m_PrefabParentObject: {fileID: 459912, guid: 03195f095903a914192b43fe5bb968e1, type: 2}
  m_PrefabInternal: {fileID: 1050795357}
  m_GameObject: {fileID: 1949396020}
  m_LocalRotation: {x: 0.000000006851507, y: 0.000000070461965, z: -0.116402015, w: 0.9932022}
  m_LocalPosition: {x: -0.073707506, y: -0.000000076293944, z: 0.000000009536743}
  m_LocalScale: {x: 1.0000001, y: 1.0000001, z: 1.0000002}
  m_Children:
  - {fileID: 553371475}
  m_Father: {fileID: 1151619612}
  m_RootOrder: 0
  m_LocalEulerAnglesHint: {x: 0, y: 0, z: 0}
--- !u!1 &1960239220
GameObject:
  m_ObjectHideFlags: 0
  m_PrefabParentObject: {fileID: 159834, guid: 03195f095903a914192b43fe5bb968e1, type: 2}
  m_PrefabInternal: {fileID: 1050795357}
  serializedVersion: 5
  m_Component:
  - component: {fileID: 1960239221}
  m_Layer: 0
  m_Name: B_R_Calf
  m_TagString: Untagged
  m_Icon: {fileID: 0}
  m_NavMeshLayer: 0
  m_StaticEditorFlags: 0
  m_IsActive: 1
--- !u!4 &1960239221
Transform:
  m_ObjectHideFlags: 0
  m_PrefabParentObject: {fileID: 459832, guid: 03195f095903a914192b43fe5bb968e1, type: 2}
  m_PrefabInternal: {fileID: 1050795357}
  m_GameObject: {fileID: 1960239220}
  m_LocalRotation: {x: 0.0000023773391, y: -0.00000018754649, z: 0.09983331, w: 0.9950042}
  m_LocalPosition: {x: -0.55950487, y: 0.000000019073486, z: 0.000000019073486}
  m_LocalScale: {x: 1.0000002, y: 1.0000002, z: 1}
  m_Children:
  - {fileID: 1063050389}
  m_Father: {fileID: 872294684}
  m_RootOrder: 0
  m_LocalEulerAnglesHint: {x: 0, y: 0, z: 0}
--- !u!1 &1983572117
GameObject:
  m_ObjectHideFlags: 0
  m_PrefabParentObject: {fileID: 159846, guid: 03195f095903a914192b43fe5bb968e1, type: 2}
  m_PrefabInternal: {fileID: 1050795357}
  serializedVersion: 5
  m_Component:
  - component: {fileID: 1983572118}
  m_Layer: 0
  m_Name: B_L_UpperArm
  m_TagString: Untagged
  m_Icon: {fileID: 0}
  m_NavMeshLayer: 0
  m_StaticEditorFlags: 0
  m_IsActive: 1
--- !u!4 &1983572118
Transform:
  m_ObjectHideFlags: 0
  m_PrefabParentObject: {fileID: 459844, guid: 03195f095903a914192b43fe5bb968e1, type: 2}
  m_PrefabInternal: {fileID: 1050795357}
  m_GameObject: {fileID: 1983572117}
  m_LocalRotation: {x: 0.037062705, y: -0.6700438, z: -0.033530645, w: 0.7406371}
  m_LocalPosition: {x: -0.19472978, y: 0.000000015199184, z: 0}
  m_LocalScale: {x: 0.99999976, y: 0.9999998, z: 1.0000004}
  m_Children:
  - {fileID: 586424583}
  m_Father: {fileID: 1766276405}
  m_RootOrder: 0
  m_LocalEulerAnglesHint: {x: 0, y: 0, z: 0}
--- !u!1 &2018931441
GameObject:
  m_ObjectHideFlags: 0
  m_PrefabParentObject: {fileID: 186042, guid: 03195f095903a914192b43fe5bb968e1, type: 2}
  m_PrefabInternal: {fileID: 1050795357}
  serializedVersion: 5
  m_Component:
  - component: {fileID: 2018931442}
  - component: {fileID: 2018931443}
  - component: {fileID: 2018931444}
  m_Layer: 0
  m_Name: Hair1
  m_TagString: Untagged
  m_Icon: {fileID: 0}
  m_NavMeshLayer: 0
  m_StaticEditorFlags: 0
  m_IsActive: 1
--- !u!4 &2018931442
Transform:
  m_ObjectHideFlags: 0
  m_PrefabParentObject: {fileID: 486042, guid: 03195f095903a914192b43fe5bb968e1, type: 2}
  m_PrefabInternal: {fileID: 1050795357}
  m_GameObject: {fileID: 2018931441}
  m_LocalRotation: {x: 0, y: -0, z: -0, w: 1}
  m_LocalPosition: {x: 0.048961185, y: 0.00000006206275, z: 0}
  m_LocalScale: {x: 1, y: 1, z: 1}
  m_Children:
  - {fileID: 404298546}
  m_Father: {fileID: 1271043110}
  m_RootOrder: 0
  m_LocalEulerAnglesHint: {x: 0, y: 0, z: 0}
--- !u!54 &2018931443
Rigidbody:
  m_ObjectHideFlags: 0
  m_PrefabParentObject: {fileID: 5486046, guid: 03195f095903a914192b43fe5bb968e1,
    type: 2}
  m_PrefabInternal: {fileID: 1050795357}
  m_GameObject: {fileID: 2018931441}
  serializedVersion: 2
  m_Mass: 12
  m_Drag: 1
  m_AngularDrag: 1
  m_UseGravity: 1
  m_IsKinematic: 0
  m_Interpolate: 0
  m_Constraints: 0
  m_CollisionDetection: 2
--- !u!144 &2018931444
CharacterJoint:
  m_ObjectHideFlags: 0
  m_PrefabParentObject: {fileID: 14486048, guid: 03195f095903a914192b43fe5bb968e1,
    type: 2}
  m_PrefabInternal: {fileID: 1050795357}
  m_GameObject: {fileID: 2018931441}
  m_ConnectedBody: {fileID: 166314206}
  m_Anchor: {x: 0, y: 0, z: 0}
  m_Axis: {x: 0, y: 1, z: 0}
  m_AutoConfigureConnectedAnchor: 1
  m_ConnectedAnchor: {x: -0.0982682, y: -0.16426803, z: -0.0000005167708}
  serializedVersion: 2
  m_SwingAxis: {x: 0, y: 0, z: 1}
  m_TwistLimitSpring:
    spring: 0
    damper: 0
  m_LowTwistLimit:
    limit: -75
    bounciness: 0
    contactDistance: 0
  m_HighTwistLimit:
    limit: 75
    bounciness: 0
    contactDistance: 0
  m_SwingLimitSpring:
    spring: 0
    damper: 0
  m_Swing1Limit:
    limit: 80
    bounciness: 0
    contactDistance: 0
  m_Swing2Limit:
    limit: 0
    bounciness: 0
    contactDistance: 0
  m_EnableProjection: 0
  m_ProjectionDistance: 0.1
  m_ProjectionAngle: 180
  m_BreakForce: Infinity
  m_BreakTorque: Infinity
  m_EnableCollision: 0
  m_EnablePreprocessing: 1
  m_MassScale: 1
  m_ConnectedMassScale: 1
--- !u!1 &2053519571
GameObject:
  m_ObjectHideFlags: 0
  m_PrefabParentObject: {fileID: 159868, guid: 03195f095903a914192b43fe5bb968e1, type: 2}
  m_PrefabInternal: {fileID: 1050795357}
  serializedVersion: 5
  m_Component:
  - component: {fileID: 2053519572}
  m_Layer: 0
  m_Name: B_L_Finger22
  m_TagString: Untagged
  m_Icon: {fileID: 0}
  m_NavMeshLayer: 0
  m_StaticEditorFlags: 0
  m_IsActive: 1
--- !u!4 &2053519572
Transform:
  m_ObjectHideFlags: 0
  m_PrefabParentObject: {fileID: 459876, guid: 03195f095903a914192b43fe5bb968e1, type: 2}
  m_PrefabInternal: {fileID: 1050795357}
  m_GameObject: {fileID: 2053519571}
  m_LocalRotation: {x: 0.000000005868123, y: 0.000000018066203, z: -0.11640198, w: 0.9932022}
  m_LocalPosition: {x: -0.08599251, y: 0.00000015258789, z: -0.0000000667572}
  m_LocalScale: {x: 0.9999999, y: 0.99999994, z: 1.0000001}
  m_Children: []
  m_Father: {fileID: 335907381}
  m_RootOrder: 0
  m_LocalEulerAnglesHint: {x: 0, y: 0, z: 0}
